<?xml version="1.0" encoding="UTF-8" standalone="no"?>
<!-- Created with Inkscape (http://www.inkscape.org/) -->

<svg
   xmlns:dc="http://purl.org/dc/elements/1.1/"
   xmlns:cc="http://creativecommons.org/ns#"
   xmlns:rdf="http://www.w3.org/1999/02/22-rdf-syntax-ns#"
   xmlns:svg="http://www.w3.org/2000/svg"
   xmlns="http://www.w3.org/2000/svg"
   xmlns:sodipodi="http://sodipodi.sourceforge.net/DTD/sodipodi-0.dtd"
   xmlns:inkscape="http://www.inkscape.org/namespaces/inkscape"
   id="svg3080"
   version="1.1"
   inkscape:version="0.48.5 r10040"
   width="572.525"
   height="273.0125"
   xml:space="preserve"
   sodipodi:docname="Simple_Blockchain_Art_Diagram_7.svg"><metadata
     id="metadata3086"><rdf:RDF><cc:Work
         rdf:about=""><dc:format>image/svg+xml</dc:format><dc:type
           rdf:resource="http://purl.org/dc/dcmitype/StillImage" /><dc:title></dc:title></cc:Work></rdf:RDF></metadata><defs
     id="defs3084"><clipPath
       clipPathUnits="userSpaceOnUse"
       id="clipPath3100"><path
         d="m 1119.98,839.332 c 5.97,0 10.82,5.227 10.82,11.68 l 0,904.848 c 0,6.44 -4.85,11.68 -10.82,11.68 l -1027.4761,0 c -5.9805,0 -10.8203,-5.24 -10.8203,-11.68 l 0,-904.848 c 0,-6.453 4.8398,-11.68 10.8203,-11.68 l 1027.4761,0"
         id="path3102" /></clipPath><clipPath
       clipPathUnits="userSpaceOnUse"
       id="clipPath3142"><path
         d="m 1060,828.711 -916.977,0 c -5.433,0 -9.843,-4.41 -9.843,-9.84 l 0,-274.312 c 0,-5.418 4.41,-9.829 9.843,-9.829 l 51.274,0 c -5.434,0 -9.84,-4.41 -9.84,-9.851 l 0,-28.168 c 0,-5.441 4.406,-9.84 9.84,-9.84 l 817.833,0 c 5.45,0 9.85,4.399 9.85,9.84 l 0,28.168 c 0,5.441 -4.4,9.851 -9.85,9.851 l 47.87,0 c 5.43,0 9.83,4.411 9.83,9.829 l 0,274.312 c 0,5.43 -4.4,9.84 -9.83,9.84"
         id="path3144" /></clipPath><clipPath
       clipPathUnits="userSpaceOnUse"
       id="clipPath3182"><path
         d="m 1112.28,836.809 -1008.663,0 c -5.9686,0 -10.824,-4.84 -10.824,-10.821 l 0,-301.738 c 0,-5.969 4.8554,-10.82 10.824,-10.82 l 56.403,0 c -5.981,0 -10.821,-4.84 -10.821,-10.821 l 0,-30.988 c 0,-5.98 4.84,-10.82 10.821,-10.82 l 899.62,0 c 5.98,0 10.82,4.84 10.82,10.82 l 0,30.988 c 0,5.981 -4.84,10.821 -10.82,10.821 l 52.64,0 c 5.97,0 10.83,4.851 10.83,10.82 l 0,301.738 c 0,5.981 -4.86,10.821 -10.83,10.821"
         id="path3184" /></clipPath><clipPath
       clipPathUnits="userSpaceOnUse"
       id="clipPath3272"><path
         d="m 4449.94,488.648 c 5.98,0 10.82,5.211 10.82,11.672 l 0,904.86 c 0,6.44 -4.84,11.66 -10.82,11.66 l -1027.46,0 c -5.98,0 -10.82,-5.22 -10.82,-11.66 l 0,-904.86 c 0,-6.461 4.84,-11.672 10.82,-11.672 l 1027.46,0"
         id="path3274" /></clipPath><clipPath
       clipPathUnits="userSpaceOnUse"
       id="clipPath3314"><path
         d="m 4389.97,478.02 -916.99,0 c -5.42,0 -9.83,-4.411 -9.83,-9.84 l 0,-274.309 c 0,-5.43 4.41,-9.832 9.83,-9.832 l 51.28,0 c -5.43,0 -9.83,-4.418 -9.83,-9.848 l 0,-28.179 c 0,-5.43 4.4,-9.832 9.83,-9.832 l 817.84,0 c 5.43,0 9.84,4.402 9.84,9.832 l 0,28.179 c 0,5.43 -4.41,9.848 -9.84,9.848 l 47.87,0 c 5.42,0 9.83,4.402 9.83,9.832 l 0,274.309 c 0,5.429 -4.41,9.84 -9.83,9.84"
         id="path3316" /></clipPath><clipPath
       clipPathUnits="userSpaceOnUse"
       id="clipPath3354"><path
         d="m 4442.25,486.121 -1008.66,0 c -5.98,0 -10.82,-4.851 -10.82,-10.82 l 0,-301.731 c 0,-5.988 4.84,-10.832 10.82,-10.832 l 56.41,0 c -5.99,0 -10.82,-4.847 -10.82,-10.828 l 0,-30.988 c 0,-5.973 4.83,-10.82 10.82,-10.82 l 899.6,0 c 5.99,0 10.82,4.847 10.82,10.82 l 0,30.988 c 0,5.981 -4.83,10.828 -10.82,10.828 l 52.65,0 c 5.97,0 10.82,4.844 10.82,10.832 l 0,301.731 c 0,5.969 -4.85,10.82 -10.82,10.82"
         id="path3356" /></clipPath><clipPath
       clipPathUnits="userSpaceOnUse"
       id="clipPath3100-6"><path
         inkscape:connector-curvature="0"
         d="m 1119.98,839.332 c 5.97,0 10.82,5.227 10.82,11.68 l 0,904.848 c 0,6.44 -4.85,11.68 -10.82,11.68 l -1027.4761,0 c -5.9805,0 -10.8203,-5.24 -10.8203,-11.68 l 0,-904.848 c 0,-6.453 4.8398,-11.68 10.8203,-11.68 l 1027.4761,0"
         id="path3102-9" /></clipPath><clipPath
       clipPathUnits="userSpaceOnUse"
       id="clipPath3100-4"><path
         inkscape:connector-curvature="0"
         d="m 1119.98,839.332 c 5.97,0 10.82,5.227 10.82,11.68 l 0,904.848 c 0,6.44 -4.85,11.68 -10.82,11.68 l -1027.4761,0 c -5.9805,0 -10.8203,-5.24 -10.8203,-11.68 l 0,-904.848 c 0,-6.453 4.8398,-11.68 10.8203,-11.68 l 1027.4761,0"
         id="path3102-90" /></clipPath><clipPath
       clipPathUnits="userSpaceOnUse"
       id="clipPath3100-4-4"><path
         inkscape:connector-curvature="0"
         d="m 1119.98,839.332 c 5.97,0 10.82,5.227 10.82,11.68 l 0,904.848 c 0,6.44 -4.85,11.68 -10.82,11.68 l -1027.4761,0 c -5.9805,0 -10.8203,-5.24 -10.8203,-11.68 l 0,-904.848 c 0,-6.453 4.8398,-11.68 10.8203,-11.68 l 1027.4761,0"
         id="path3102-90-7" /></clipPath><clipPath
       clipPathUnits="userSpaceOnUse"
       id="clipPath3100-7"><path
         inkscape:connector-curvature="0"
         d="m 1119.98,839.332 c 5.97,0 10.82,5.227 10.82,11.68 l 0,904.848 c 0,6.44 -4.85,11.68 -10.82,11.68 l -1027.4761,0 c -5.9805,0 -10.8203,-5.24 -10.8203,-11.68 l 0,-904.848 c 0,-6.453 4.8398,-11.68 10.8203,-11.68 l 1027.4761,0"
         id="path3102-5" /></clipPath><clipPath
       clipPathUnits="userSpaceOnUse"
       id="clipPath3100-8"><path
         inkscape:connector-curvature="0"
         d="m 1119.98,839.332 c 5.97,0 10.82,5.227 10.82,11.68 l 0,904.848 c 0,6.44 -4.85,11.68 -10.82,11.68 l -1027.4761,0 c -5.9805,0 -10.8203,-5.24 -10.8203,-11.68 l 0,-904.848 c 0,-6.453 4.8398,-11.68 10.8203,-11.68 l 1027.4761,0"
         id="path3102-2" /></clipPath><clipPath
       clipPathUnits="userSpaceOnUse"
       id="clipPath3100-3"><path
         inkscape:connector-curvature="0"
         d="m 1119.98,839.332 c 5.97,0 10.82,5.227 10.82,11.68 l 0,904.848 c 0,6.44 -4.85,11.68 -10.82,11.68 l -1027.4761,0 c -5.9805,0 -10.8203,-5.24 -10.8203,-11.68 l 0,-904.848 c 0,-6.453 4.8398,-11.68 10.8203,-11.68 l 1027.4761,0"
         id="path3102-8" /></clipPath><clipPath
       clipPathUnits="userSpaceOnUse"
       id="clipPath3100-44"><path
         inkscape:connector-curvature="0"
         d="m 1119.98,839.332 c 5.97,0 10.82,5.227 10.82,11.68 l 0,904.848 c 0,6.44 -4.85,11.68 -10.82,11.68 l -1027.4761,0 c -5.9805,0 -10.8203,-5.24 -10.8203,-11.68 l 0,-904.848 c 0,-6.453 4.8398,-11.68 10.8203,-11.68 l 1027.4761,0"
         id="path3102-3" /></clipPath><clipPath
       clipPathUnits="userSpaceOnUse"
       id="clipPath3100-43"><path
         inkscape:connector-curvature="0"
         d="m 1119.98,839.332 c 5.97,0 10.82,5.227 10.82,11.68 l 0,904.848 c 0,6.44 -4.85,11.68 -10.82,11.68 l -1027.4761,0 c -5.9805,0 -10.8203,-5.24 -10.8203,-11.68 l 0,-904.848 c 0,-6.453 4.8398,-11.68 10.8203,-11.68 l 1027.4761,0"
         id="path3102-0" /></clipPath><clipPath
       clipPathUnits="userSpaceOnUse"
       id="clipPath3100-80"><path
         inkscape:connector-curvature="0"
         d="m 1119.98,839.332 c 5.97,0 10.82,5.227 10.82,11.68 l 0,904.848 c 0,6.44 -4.85,11.68 -10.82,11.68 l -1027.4761,0 c -5.9805,0 -10.8203,-5.24 -10.8203,-11.68 l 0,-904.848 c 0,-6.453 4.8398,-11.68 10.8203,-11.68 l 1027.4761,0"
         id="path3102-6" /></clipPath></defs><sodipodi:namedview
     pagecolor="#ffffff"
     bordercolor="#666666"
     borderopacity="1"
     objecttolerance="10"
     gridtolerance="10"
     guidetolerance="10"
     inkscape:pageopacity="0"
     inkscape:pageshadow="2"
     inkscape:window-width="1150"
     inkscape:window-height="626"
     id="namedview3082"
     showgrid="false"
     inkscape:zoom="1.3541835"
     inkscape:cx="296.47768"
     inkscape:cy="136.25374"
     inkscape:window-x="19"
     inkscape:window-y="88"
     inkscape:window-maximized="0"
     inkscape:current-layer="g3088"
     showguides="true"
     inkscape:guide-bbox="true" /><g
     id="g3088"
     inkscape:groupmode="layer"
     inkscape:label="ink_ext_XXXXXX"
     transform="matrix(1.25,0,0,-1.25,0,273.0125)"><g
       id="g3096"
       transform="matrix(0.1,0,0,0.1,25.730274,-36.574735)"><g
         clip-path="url(#clipPath3100)"
         id="g3098"><path
           inkscape:connector-curvature="0"
           id="path3104"
           style="fill:#ffffff;fill-opacity:1;fill-rule:nonzero;stroke:none"
           d="m 1119.98,839.332 c 5.97,0 10.82,5.227 10.82,11.68 l 0,904.848 c 0,6.44 -4.85,11.68 -10.82,11.68 l -1027.4761,0 c -5.9805,0 -10.8203,-5.24 -10.8203,-11.68 l 0,-904.848 c 0,-6.453 4.8398,-11.68 10.8203,-11.68 l 1027.4761,0" /><path
           inkscape:connector-curvature="0"
           id="path3106"
           style="fill:none;stroke:#7b7d7e;stroke-width:273.47399902;stroke-linecap:butt;stroke-linejoin:round;stroke-miterlimit:4;stroke-opacity:1;stroke-dasharray:none"
           d="m 1119.98,839.332 c 5.97,0 10.82,5.227 10.82,11.68 l 0,904.848 c 0,6.44 -4.85,11.68 -10.82,11.68 l -1027.4761,0 c -5.9805,0 -10.8203,-5.24 -10.8203,-11.68 l 0,-904.848 c 0,-6.453 4.8398,-11.68 10.8203,-11.68 l 1027.4761,0 z" /><path
           inkscape:connector-curvature="0"
           id="path3108"
           style="fill:none;stroke:#838485;stroke-width:256.38198853;stroke-linecap:butt;stroke-linejoin:round;stroke-miterlimit:4;stroke-opacity:1;stroke-dasharray:none"
           d="m 1119.98,839.332 c 5.97,0 10.82,5.227 10.82,11.68 l 0,904.848 c 0,6.44 -4.85,11.68 -10.82,11.68 l -1027.4761,0 c -5.9805,0 -10.8203,-5.24 -10.8203,-11.68 l 0,-904.848 c 0,-6.453 4.8398,-11.68 10.8203,-11.68 l 1027.4761,0 z" /><path
           inkscape:connector-curvature="0"
           id="path3110"
           style="fill:none;stroke:#8c8d8d;stroke-width:239.29100037;stroke-linecap:butt;stroke-linejoin:round;stroke-miterlimit:4;stroke-opacity:1;stroke-dasharray:none"
           d="m 1119.98,839.332 c 5.97,0 10.82,5.227 10.82,11.68 l 0,904.848 c 0,6.44 -4.85,11.68 -10.82,11.68 l -1027.4761,0 c -5.9805,0 -10.8203,-5.24 -10.8203,-11.68 l 0,-904.848 c 0,-6.453 4.8398,-11.68 10.8203,-11.68 l 1027.4761,0 z" /><path
           inkscape:connector-curvature="0"
           id="path3112"
           style="fill:none;stroke:#949594;stroke-width:222.19799805;stroke-linecap:butt;stroke-linejoin:round;stroke-miterlimit:4;stroke-opacity:1;stroke-dasharray:none"
           d="m 1119.98,839.332 c 5.97,0 10.82,5.227 10.82,11.68 l 0,904.848 c 0,6.44 -4.85,11.68 -10.82,11.68 l -1027.4761,0 c -5.9805,0 -10.8203,-5.24 -10.8203,-11.68 l 0,-904.848 c 0,-6.453 4.8398,-11.68 10.8203,-11.68 l 1027.4761,0 z" /><path
           inkscape:connector-curvature="0"
           id="path3114"
           style="fill:none;stroke:#9c9d9c;stroke-width:205.10600281;stroke-linecap:butt;stroke-linejoin:round;stroke-miterlimit:4;stroke-opacity:1;stroke-dasharray:none"
           d="m 1119.98,839.332 c 5.97,0 10.82,5.227 10.82,11.68 l 0,904.848 c 0,6.44 -4.85,11.68 -10.82,11.68 l -1027.4761,0 c -5.9805,0 -10.8203,-5.24 -10.8203,-11.68 l 0,-904.848 c 0,-6.453 4.8398,-11.68 10.8203,-11.68 l 1027.4761,0 z" /><path
           inkscape:connector-curvature="0"
           id="path3116"
           style="fill:none;stroke:#a6a6a5;stroke-width:188.01400757;stroke-linecap:butt;stroke-linejoin:round;stroke-miterlimit:4;stroke-opacity:1;stroke-dasharray:none"
           d="m 1119.98,839.332 c 5.97,0 10.82,5.227 10.82,11.68 l 0,904.848 c 0,6.44 -4.85,11.68 -10.82,11.68 l -1027.4761,0 c -5.9805,0 -10.8203,-5.24 -10.8203,-11.68 l 0,-904.848 c 0,-6.453 4.8398,-11.68 10.8203,-11.68 l 1027.4761,0 z" /><path
           inkscape:connector-curvature="0"
           id="path3118"
           style="fill:none;stroke:#afafad;stroke-width:170.92199707;stroke-linecap:butt;stroke-linejoin:round;stroke-miterlimit:4;stroke-opacity:1;stroke-dasharray:none"
           d="m 1119.98,839.332 c 5.97,0 10.82,5.227 10.82,11.68 l 0,904.848 c 0,6.44 -4.85,11.68 -10.82,11.68 l -1027.4761,0 c -5.9805,0 -10.8203,-5.24 -10.8203,-11.68 l 0,-904.848 c 0,-6.453 4.8398,-11.68 10.8203,-11.68 l 1027.4761,0 z" /><path
           inkscape:connector-curvature="0"
           id="path3120"
           style="fill:none;stroke:#b7b7b5;stroke-width:153.83000183;stroke-linecap:butt;stroke-linejoin:round;stroke-miterlimit:4;stroke-opacity:1;stroke-dasharray:none"
           d="m 1119.98,839.332 c 5.97,0 10.82,5.227 10.82,11.68 l 0,904.848 c 0,6.44 -4.85,11.68 -10.82,11.68 l -1027.4761,0 c -5.9805,0 -10.8203,-5.24 -10.8203,-11.68 l 0,-904.848 c 0,-6.453 4.8398,-11.68 10.8203,-11.68 l 1027.4761,0 z" /><path
           inkscape:connector-curvature="0"
           id="path3122"
           style="fill:none;stroke:#c0bebd;stroke-width:136.73800659;stroke-linecap:butt;stroke-linejoin:round;stroke-miterlimit:4;stroke-opacity:1;stroke-dasharray:none"
           d="m 1119.98,839.332 c 5.97,0 10.82,5.227 10.82,11.68 l 0,904.848 c 0,6.44 -4.85,11.68 -10.82,11.68 l -1027.4761,0 c -5.9805,0 -10.8203,-5.24 -10.8203,-11.68 l 0,-904.848 c 0,-6.453 4.8398,-11.68 10.8203,-11.68 l 1027.4761,0 z" /><path
           inkscape:connector-curvature="0"
           id="path3124"
           style="fill:none;stroke:#c8c7c6;stroke-width:119.64499664;stroke-linecap:butt;stroke-linejoin:round;stroke-miterlimit:4;stroke-opacity:1;stroke-dasharray:none"
           d="m 1119.98,839.332 c 5.97,0 10.82,5.227 10.82,11.68 l 0,904.848 c 0,6.44 -4.85,11.68 -10.82,11.68 l -1027.4761,0 c -5.9805,0 -10.8203,-5.24 -10.8203,-11.68 l 0,-904.848 c 0,-6.453 4.8398,-11.68 10.8203,-11.68 l 1027.4761,0 z" /><path
           inkscape:connector-curvature="0"
           id="path3126"
           style="fill:none;stroke:#d2d1cf;stroke-width:102.5530014;stroke-linecap:butt;stroke-linejoin:round;stroke-miterlimit:4;stroke-opacity:1;stroke-dasharray:none"
           d="m 1119.98,839.332 c 5.97,0 10.82,5.227 10.82,11.68 l 0,904.848 c 0,6.44 -4.85,11.68 -10.82,11.68 l -1027.4761,0 c -5.9805,0 -10.8203,-5.24 -10.8203,-11.68 l 0,-904.848 c 0,-6.453 4.8398,-11.68 10.8203,-11.68 l 1027.4761,0 z" /><path
           inkscape:connector-curvature="0"
           id="path3128"
           style="fill:none;stroke:#dadad8;stroke-width:85.46099854;stroke-linecap:butt;stroke-linejoin:round;stroke-miterlimit:4;stroke-opacity:1;stroke-dasharray:none"
           d="m 1119.98,839.332 c 5.97,0 10.82,5.227 10.82,11.68 l 0,904.848 c 0,6.44 -4.85,11.68 -10.82,11.68 l -1027.4761,0 c -5.9805,0 -10.8203,-5.24 -10.8203,-11.68 l 0,-904.848 c 0,-6.453 4.8398,-11.68 10.8203,-11.68 l 1027.4761,0 z" /><path
           inkscape:connector-curvature="0"
           id="path3130"
           style="fill:none;stroke:#e2e1e0;stroke-width:68.3690033;stroke-linecap:butt;stroke-linejoin:round;stroke-miterlimit:4;stroke-opacity:1;stroke-dasharray:none"
           d="m 1119.98,839.332 c 5.97,0 10.82,5.227 10.82,11.68 l 0,904.848 c 0,6.44 -4.85,11.68 -10.82,11.68 l -1027.4761,0 c -5.9805,0 -10.8203,-5.24 -10.8203,-11.68 l 0,-904.848 c 0,-6.453 4.8398,-11.68 10.8203,-11.68 l 1027.4761,0 z" /><path
           inkscape:connector-curvature="0"
           id="path3132"
           style="fill:none;stroke:#eaebea;stroke-width:51.27600098;stroke-linecap:butt;stroke-linejoin:round;stroke-miterlimit:4;stroke-opacity:1;stroke-dasharray:none"
           d="m 1119.98,839.332 c 5.97,0 10.82,5.227 10.82,11.68 l 0,904.848 c 0,6.44 -4.85,11.68 -10.82,11.68 l -1027.4761,0 c -5.9805,0 -10.8203,-5.24 -10.8203,-11.68 l 0,-904.848 c 0,-6.453 4.8398,-11.68 10.8203,-11.68 l 1027.4761,0 z" /><path
           inkscape:connector-curvature="0"
           id="path3134"
           style="fill:none;stroke:#f3f3f3;stroke-width:34.18399811;stroke-linecap:butt;stroke-linejoin:round;stroke-miterlimit:4;stroke-opacity:1;stroke-dasharray:none"
           d="m 1119.98,839.332 c 5.97,0 10.82,5.227 10.82,11.68 l 0,904.848 c 0,6.44 -4.85,11.68 -10.82,11.68 l -1027.4761,0 c -5.9805,0 -10.8203,-5.24 -10.8203,-11.68 l 0,-904.848 c 0,-6.453 4.8398,-11.68 10.8203,-11.68 l 1027.4761,0 z" /><path
           inkscape:connector-curvature="0"
           id="path3136"
           style="fill:none;stroke:#fafafa;stroke-width:17.09199905;stroke-linecap:butt;stroke-linejoin:round;stroke-miterlimit:4;stroke-opacity:1;stroke-dasharray:none"
           d="m 1119.98,839.332 c 5.97,0 10.82,5.227 10.82,11.68 l 0,904.848 c 0,6.44 -4.85,11.68 -10.82,11.68 l -1027.4761,0 c -5.9805,0 -10.8203,-5.24 -10.8203,-11.68 l 0,-904.848 c 0,-6.453 4.8398,-11.68 10.8203,-11.68 l 1027.4761,0 z" /></g></g><path
       inkscape:connector-curvature="0"
       id="path3224"
       style="fill:#ffffff;fill-opacity:1;fill-rule:nonzero;stroke:none"
       d="m 136.85728,140.23626 c 0.544,0 0.984,-0.475 0.984,-1.061 l 0,-82.260895 c 0,-0.586 -0.44,-1.061 -0.984,-1.061 l -93.406306,0 c -0.5445,0 -0.9844,0.475 -0.9844,1.061 l 0,82.260895 c 0,0.586 0.4399,1.061 0.9844,1.061 l 93.406306,0" /><path
       inkscape:connector-curvature="0"
       id="path3226"
       style="fill:none;stroke:#100f0d;stroke-width:1.36739993;stroke-linecap:butt;stroke-linejoin:miter;stroke-miterlimit:4;stroke-opacity:1;stroke-dasharray:none"
       d="m 136.85728,140.23626 c 0.544,0 0.984,-0.475 0.984,-1.061 l 0,-82.260895 c 0,-0.586 -0.44,-1.061 -0.984,-1.061 l -93.406306,0 c -0.5445,0 -0.9844,0.475 -0.9844,1.061 l 0,82.260895 c 0,0.586 0.4399,1.061 0.9844,1.061 l 93.406306,0 z" /><g
       transform="scale(1,-1)"
       style="font-size:19.20000076px;font-style:normal;font-variant:normal;font-weight:normal;font-stretch:normal;line-height:125%;letter-spacing:0px;word-spacing:0px;fill:#000000;fill-opacity:1;stroke:none;font-family:Allerta Stencil;-inkscape-font-specification:Allerta Stencil"
       id="text4814"><path
         d="m 55.717199,-129.84686 -2.728126,0 -0.7875,3.13125 2.746876,0 0.76875,-3.13125 m -1.40625,-5.33438 -0.975001,3.89063 2.737501,0 0.984375,-3.89063 1.5,0 -0.965625,3.89063 2.925,0 0,1.44375 -3.290625,0 -0.76875,3.13125 2.98125,0 0,1.43437 -3.346875,0 -0.975,3.88125 -1.500001,0 0.965626,-3.88125 -2.746876,0 -0.965625,3.88125 -1.509375,0 0.975,-3.88125 -2.953125,0 0,-1.43437 3.3,0 0.7875,-3.13125 -3.01875,0 0,-1.44375 3.384375,0 0.95625,-3.89063 1.518751,0"
         style=""
         id="path10986" /></g><path
       d="m -0.21836546,118.5696 12.07890046,0 0,3.98828 -12.07890046,0 0,-3.98828 z"
       style="fill:#100f0d;fill-opacity:1;fill-rule:nonzero;stroke:none"
       id="path3262-0-8"
       inkscape:connector-curvature="0" /><path
       inkscape:connector-curvature="0"
       id="path3264-8-6"
       style="fill:none;stroke:#100f0d;stroke-width:1.36739993;stroke-linecap:butt;stroke-linejoin:miter;stroke-miterlimit:4;stroke-opacity:1;stroke-dasharray:none"
       d="m -0.21836236,118.5696 12.07890036,0 0,3.98828 -12.07890036,0 0,-3.98828 z" /><g
       id="g4773-5-4"
       transform="translate(-308.24108,41.180548)"><path
         d="m 338.184,32.3512 12.077,0 0,3.98789 -12.077,0 0,-3.98789 z"
         style="fill:#100f0d;fill-opacity:1;fill-rule:nonzero;stroke:none"
         id="path3436-0-3"
         inkscape:connector-curvature="0" /><path
         d="m 338.184,32.3512 12.077,0 0,3.98789 -12.077,0 0,-3.98789 z"
         style="fill:none;stroke:#100f0d;stroke-width:1.36739993;stroke-linecap:butt;stroke-linejoin:miter;stroke-miterlimit:4;stroke-opacity:1;stroke-dasharray:none"
         id="path3438-9-3"
         inkscape:connector-curvature="0" /></g><g
       id="g3970-6-3"
       transform="matrix(0.17939328,0,0,0.36876131,-20.51742,62.584156)"
       style="stroke-width:5.31875944;stroke-miterlimit:4;stroke-dasharray:none"><path
         d="m 351.145,34.6301 -119.389,0 0,123.0629 -119.873,0"
         style="fill:none;stroke:#100f0d;stroke-width:5.31875944;stroke-linecap:butt;stroke-linejoin:miter;stroke-miterlimit:4;stroke-opacity:1;stroke-dasharray:none"
         id="path3440-3-8"
         inkscape:connector-curvature="0" /></g><g
       id="g3096-5"
       transform="matrix(0.1,0,0,0.1,164.39386,-36.574735)"><g
         clip-path="url(#clipPath3100-44)"
         id="g3098-1"><path
           inkscape:connector-curvature="0"
           id="path3104-3"
           style="fill:#ffffff;fill-opacity:1;fill-rule:nonzero;stroke:none"
           d="m 1119.98,839.332 c 5.97,0 10.82,5.227 10.82,11.68 l 0,904.848 c 0,6.44 -4.85,11.68 -10.82,11.68 l -1027.4761,0 c -5.9805,0 -10.8203,-5.24 -10.8203,-11.68 l 0,-904.848 c 0,-6.453 4.8398,-11.68 10.8203,-11.68 l 1027.4761,0" /><path
           inkscape:connector-curvature="0"
           id="path3106-2"
           style="fill:none;stroke:#7b7d7e;stroke-width:273.47399902;stroke-linecap:butt;stroke-linejoin:round;stroke-miterlimit:4;stroke-opacity:1;stroke-dasharray:none"
           d="m 1119.98,839.332 c 5.97,0 10.82,5.227 10.82,11.68 l 0,904.848 c 0,6.44 -4.85,11.68 -10.82,11.68 l -1027.4761,0 c -5.9805,0 -10.8203,-5.24 -10.8203,-11.68 l 0,-904.848 c 0,-6.453 4.8398,-11.68 10.8203,-11.68 l 1027.4761,0 z" /><path
           inkscape:connector-curvature="0"
           id="path3108-6"
           style="fill:none;stroke:#838485;stroke-width:256.38198853;stroke-linecap:butt;stroke-linejoin:round;stroke-miterlimit:4;stroke-opacity:1;stroke-dasharray:none"
           d="m 1119.98,839.332 c 5.97,0 10.82,5.227 10.82,11.68 l 0,904.848 c 0,6.44 -4.85,11.68 -10.82,11.68 l -1027.4761,0 c -5.9805,0 -10.8203,-5.24 -10.8203,-11.68 l 0,-904.848 c 0,-6.453 4.8398,-11.68 10.8203,-11.68 l 1027.4761,0 z" /><path
           inkscape:connector-curvature="0"
           id="path3110-0"
           style="fill:none;stroke:#8c8d8d;stroke-width:239.29100037;stroke-linecap:butt;stroke-linejoin:round;stroke-miterlimit:4;stroke-opacity:1;stroke-dasharray:none"
           d="m 1119.98,839.332 c 5.97,0 10.82,5.227 10.82,11.68 l 0,904.848 c 0,6.44 -4.85,11.68 -10.82,11.68 l -1027.4761,0 c -5.9805,0 -10.8203,-5.24 -10.8203,-11.68 l 0,-904.848 c 0,-6.453 4.8398,-11.68 10.8203,-11.68 l 1027.4761,0 z" /><path
           inkscape:connector-curvature="0"
           id="path3112-6"
           style="fill:none;stroke:#949594;stroke-width:222.19799805;stroke-linecap:butt;stroke-linejoin:round;stroke-miterlimit:4;stroke-opacity:1;stroke-dasharray:none"
           d="m 1119.98,839.332 c 5.97,0 10.82,5.227 10.82,11.68 l 0,904.848 c 0,6.44 -4.85,11.68 -10.82,11.68 l -1027.4761,0 c -5.9805,0 -10.8203,-5.24 -10.8203,-11.68 l 0,-904.848 c 0,-6.453 4.8398,-11.68 10.8203,-11.68 l 1027.4761,0 z" /><path
           inkscape:connector-curvature="0"
           id="path3114-9"
           style="fill:none;stroke:#9c9d9c;stroke-width:205.10600281;stroke-linecap:butt;stroke-linejoin:round;stroke-miterlimit:4;stroke-opacity:1;stroke-dasharray:none"
           d="m 1119.98,839.332 c 5.97,0 10.82,5.227 10.82,11.68 l 0,904.848 c 0,6.44 -4.85,11.68 -10.82,11.68 l -1027.4761,0 c -5.9805,0 -10.8203,-5.24 -10.8203,-11.68 l 0,-904.848 c 0,-6.453 4.8398,-11.68 10.8203,-11.68 l 1027.4761,0 z" /><path
           inkscape:connector-curvature="0"
           id="path3116-6"
           style="fill:none;stroke:#a6a6a5;stroke-width:188.01400757;stroke-linecap:butt;stroke-linejoin:round;stroke-miterlimit:4;stroke-opacity:1;stroke-dasharray:none"
           d="m 1119.98,839.332 c 5.97,0 10.82,5.227 10.82,11.68 l 0,904.848 c 0,6.44 -4.85,11.68 -10.82,11.68 l -1027.4761,0 c -5.9805,0 -10.8203,-5.24 -10.8203,-11.68 l 0,-904.848 c 0,-6.453 4.8398,-11.68 10.8203,-11.68 l 1027.4761,0 z" /><path
           inkscape:connector-curvature="0"
           id="path3118-8"
           style="fill:none;stroke:#afafad;stroke-width:170.92199707;stroke-linecap:butt;stroke-linejoin:round;stroke-miterlimit:4;stroke-opacity:1;stroke-dasharray:none"
           d="m 1119.98,839.332 c 5.97,0 10.82,5.227 10.82,11.68 l 0,904.848 c 0,6.44 -4.85,11.68 -10.82,11.68 l -1027.4761,0 c -5.9805,0 -10.8203,-5.24 -10.8203,-11.68 l 0,-904.848 c 0,-6.453 4.8398,-11.68 10.8203,-11.68 l 1027.4761,0 z" /><path
           inkscape:connector-curvature="0"
           id="path3120-0"
           style="fill:none;stroke:#b7b7b5;stroke-width:153.83000183;stroke-linecap:butt;stroke-linejoin:round;stroke-miterlimit:4;stroke-opacity:1;stroke-dasharray:none"
           d="m 1119.98,839.332 c 5.97,0 10.82,5.227 10.82,11.68 l 0,904.848 c 0,6.44 -4.85,11.68 -10.82,11.68 l -1027.4761,0 c -5.9805,0 -10.8203,-5.24 -10.8203,-11.68 l 0,-904.848 c 0,-6.453 4.8398,-11.68 10.8203,-11.68 l 1027.4761,0 z" /><path
           inkscape:connector-curvature="0"
           id="path3122-8"
           style="fill:none;stroke:#c0bebd;stroke-width:136.73800659;stroke-linecap:butt;stroke-linejoin:round;stroke-miterlimit:4;stroke-opacity:1;stroke-dasharray:none"
           d="m 1119.98,839.332 c 5.97,0 10.82,5.227 10.82,11.68 l 0,904.848 c 0,6.44 -4.85,11.68 -10.82,11.68 l -1027.4761,0 c -5.9805,0 -10.8203,-5.24 -10.8203,-11.68 l 0,-904.848 c 0,-6.453 4.8398,-11.68 10.8203,-11.68 l 1027.4761,0 z" /><path
           inkscape:connector-curvature="0"
           id="path3124-6"
           style="fill:none;stroke:#c8c7c6;stroke-width:119.64499664;stroke-linecap:butt;stroke-linejoin:round;stroke-miterlimit:4;stroke-opacity:1;stroke-dasharray:none"
           d="m 1119.98,839.332 c 5.97,0 10.82,5.227 10.82,11.68 l 0,904.848 c 0,6.44 -4.85,11.68 -10.82,11.68 l -1027.4761,0 c -5.9805,0 -10.8203,-5.24 -10.8203,-11.68 l 0,-904.848 c 0,-6.453 4.8398,-11.68 10.8203,-11.68 l 1027.4761,0 z" /><path
           inkscape:connector-curvature="0"
           id="path3126-7"
           style="fill:none;stroke:#d2d1cf;stroke-width:102.5530014;stroke-linecap:butt;stroke-linejoin:round;stroke-miterlimit:4;stroke-opacity:1;stroke-dasharray:none"
           d="m 1119.98,839.332 c 5.97,0 10.82,5.227 10.82,11.68 l 0,904.848 c 0,6.44 -4.85,11.68 -10.82,11.68 l -1027.4761,0 c -5.9805,0 -10.8203,-5.24 -10.8203,-11.68 l 0,-904.848 c 0,-6.453 4.8398,-11.68 10.8203,-11.68 l 1027.4761,0 z" /><path
           inkscape:connector-curvature="0"
           id="path3128-5"
           style="fill:none;stroke:#dadad8;stroke-width:85.46099854;stroke-linecap:butt;stroke-linejoin:round;stroke-miterlimit:4;stroke-opacity:1;stroke-dasharray:none"
           d="m 1119.98,839.332 c 5.97,0 10.82,5.227 10.82,11.68 l 0,904.848 c 0,6.44 -4.85,11.68 -10.82,11.68 l -1027.4761,0 c -5.9805,0 -10.8203,-5.24 -10.8203,-11.68 l 0,-904.848 c 0,-6.453 4.8398,-11.68 10.8203,-11.68 l 1027.4761,0 z" /><path
           inkscape:connector-curvature="0"
           id="path3130-4"
           style="fill:none;stroke:#e2e1e0;stroke-width:68.3690033;stroke-linecap:butt;stroke-linejoin:round;stroke-miterlimit:4;stroke-opacity:1;stroke-dasharray:none"
           d="m 1119.98,839.332 c 5.97,0 10.82,5.227 10.82,11.68 l 0,904.848 c 0,6.44 -4.85,11.68 -10.82,11.68 l -1027.4761,0 c -5.9805,0 -10.8203,-5.24 -10.8203,-11.68 l 0,-904.848 c 0,-6.453 4.8398,-11.68 10.8203,-11.68 l 1027.4761,0 z" /><path
           inkscape:connector-curvature="0"
           id="path3132-4"
           style="fill:none;stroke:#eaebea;stroke-width:51.27600098;stroke-linecap:butt;stroke-linejoin:round;stroke-miterlimit:4;stroke-opacity:1;stroke-dasharray:none"
           d="m 1119.98,839.332 c 5.97,0 10.82,5.227 10.82,11.68 l 0,904.848 c 0,6.44 -4.85,11.68 -10.82,11.68 l -1027.4761,0 c -5.9805,0 -10.8203,-5.24 -10.8203,-11.68 l 0,-904.848 c 0,-6.453 4.8398,-11.68 10.8203,-11.68 l 1027.4761,0 z" /><path
           inkscape:connector-curvature="0"
           id="path3134-6"
           style="fill:none;stroke:#f3f3f3;stroke-width:34.18399811;stroke-linecap:butt;stroke-linejoin:round;stroke-miterlimit:4;stroke-opacity:1;stroke-dasharray:none"
           d="m 1119.98,839.332 c 5.97,0 10.82,5.227 10.82,11.68 l 0,904.848 c 0,6.44 -4.85,11.68 -10.82,11.68 l -1027.4761,0 c -5.9805,0 -10.8203,-5.24 -10.8203,-11.68 l 0,-904.848 c 0,-6.453 4.8398,-11.68 10.8203,-11.68 l 1027.4761,0 z" /><path
           inkscape:connector-curvature="0"
           id="path3136-0"
           style="fill:none;stroke:#fafafa;stroke-width:17.09199905;stroke-linecap:butt;stroke-linejoin:round;stroke-miterlimit:4;stroke-opacity:1;stroke-dasharray:none"
           d="m 1119.98,839.332 c 5.97,0 10.82,5.227 10.82,11.68 l 0,904.848 c 0,6.44 -4.85,11.68 -10.82,11.68 l -1027.4761,0 c -5.9805,0 -10.8203,-5.24 -10.8203,-11.68 l 0,-904.848 c 0,-6.453 4.8398,-11.68 10.8203,-11.68 l 1027.4761,0 z" /></g></g><path
       inkscape:connector-curvature="0"
       id="path3224-5"
       style="fill:#ffffff;fill-opacity:1;fill-rule:nonzero;stroke:none"
       d="m 275.52086,140.23626 c 0.544,0 0.984,-0.475 0.984,-1.061 l 0,-82.260895 c 0,-0.586 -0.44,-1.061 -0.984,-1.061 l -93.4063,0 c -0.5445,0 -0.9844,0.475 -0.9844,1.061 l 0,82.260895 c 0,0.586 0.4399,1.061 0.9844,1.061 l 93.4063,0" /><path
       inkscape:connector-curvature="0"
       id="path3226-5"
       style="fill:none;stroke:#100f0d;stroke-width:1.36739993;stroke-linecap:butt;stroke-linejoin:miter;stroke-miterlimit:4;stroke-opacity:1;stroke-dasharray:none"
       d="m 275.52086,140.23626 c 0.544,0 0.984,-0.475 0.984,-1.061 l 0,-82.260895 c 0,-0.586 -0.44,-1.061 -0.984,-1.061 l -93.4063,0 c -0.5445,0 -0.9844,0.475 -0.9844,1.061 l 0,82.260895 c 0,0.586 0.4399,1.061 0.9844,1.061 l 93.4063,0 z" /><g
       transform="scale(1,-1)"
       style="font-size:19.20000076px;font-style:normal;font-variant:normal;font-weight:normal;font-stretch:normal;line-height:125%;letter-spacing:0px;word-spacing:0px;fill:#000000;fill-opacity:1;stroke:none;font-family:Allerta Stencil;-inkscape-font-specification:Allerta Stencil"
       id="text4814-3"><path
         d="m 194.3808,-129.84686 -2.72813,0 -0.7875,3.13125 2.74688,0 0.76875,-3.13125 m -1.40625,-5.33438 -0.975,3.89063 2.7375,0 0.98437,-3.89063 1.5,0 -0.96562,3.89063 2.925,0 0,1.44375 -3.29063,0 -0.76875,3.13125 2.98125,0 0,1.43437 -3.34687,0 -0.975,3.88125 -1.5,0 0.96562,-3.88125 -2.74687,0 -0.96563,3.88125 -1.50937,0 0.975,-3.88125 -2.95313,0 0,-1.43437 3.3,0 0.7875,-3.13125 -3.01875,0 0,-1.44375 3.38438,0 0.95625,-3.89063 1.51875,0"
         style=""
         id="path10989" /></g><path
       d="m 138.44522,118.5696 12.0789,0 0,3.98828 -12.0789,0 0,-3.98828 z"
       style="fill:#100f0d;fill-opacity:1;fill-rule:nonzero;stroke:none"
       id="path3262-0-8-1"
       inkscape:connector-curvature="0" /><path
       inkscape:connector-curvature="0"
       id="path3264-8-6-5"
       style="fill:none;stroke:#100f0d;stroke-width:1.36739993;stroke-linecap:butt;stroke-linejoin:miter;stroke-miterlimit:4;stroke-opacity:1;stroke-dasharray:none"
       d="m 138.44522,118.5696 12.0789,0 0,3.98828 -12.0789,0 0,-3.98828 z" /><g
       id="g4773-5-4-0"
       transform="translate(-169.5775,41.180548)"><path
         d="m 338.184,32.3512 12.077,0 0,3.98789 -12.077,0 0,-3.98789 z"
         style="fill:#100f0d;fill-opacity:1;fill-rule:nonzero;stroke:none"
         id="path3436-0-3-4"
         inkscape:connector-curvature="0" /><path
         d="m 338.184,32.3512 12.077,0 0,3.98789 -12.077,0 0,-3.98789 z"
         style="fill:none;stroke:#100f0d;stroke-width:1.36739993;stroke-linecap:butt;stroke-linejoin:miter;stroke-miterlimit:4;stroke-opacity:1;stroke-dasharray:none"
         id="path3438-9-3-9"
         inkscape:connector-curvature="0" /></g><g
       id="g3970-6-3-6"
       transform="matrix(0.17939328,0,0,0.36876131,118.14616,62.584156)"
       style="stroke-width:5.31875944;stroke-miterlimit:4;stroke-dasharray:none"><path
         d="m 351.145,34.6301 -119.389,0 0,123.0629 -119.873,0"
         style="fill:none;stroke:#100f0d;stroke-width:5.31875944;stroke-linecap:butt;stroke-linejoin:miter;stroke-miterlimit:4;stroke-opacity:1;stroke-dasharray:none"
         id="path3440-3-8-7"
         inkscape:connector-curvature="0" /></g><g
       id="g3096-6"
       transform="matrix(0.1,0,0,0.1,303.05744,-36.574735)"><g
         clip-path="url(#clipPath3100-43)"
         id="g3098-6"><path
           inkscape:connector-curvature="0"
           id="path3104-0"
           style="fill:#ffffff;fill-opacity:1;fill-rule:nonzero;stroke:none"
           d="m 1119.98,839.332 c 5.97,0 10.82,5.227 10.82,11.68 l 0,904.848 c 0,6.44 -4.85,11.68 -10.82,11.68 l -1027.4761,0 c -5.9805,0 -10.8203,-5.24 -10.8203,-11.68 l 0,-904.848 c 0,-6.453 4.8398,-11.68 10.8203,-11.68 l 1027.4761,0" /><path
           inkscape:connector-curvature="0"
           id="path3106-4"
           style="fill:none;stroke:#7b7d7e;stroke-width:273.47399902;stroke-linecap:butt;stroke-linejoin:round;stroke-miterlimit:4;stroke-opacity:1;stroke-dasharray:none"
           d="m 1119.98,839.332 c 5.97,0 10.82,5.227 10.82,11.68 l 0,904.848 c 0,6.44 -4.85,11.68 -10.82,11.68 l -1027.4761,0 c -5.9805,0 -10.8203,-5.24 -10.8203,-11.68 l 0,-904.848 c 0,-6.453 4.8398,-11.68 10.8203,-11.68 l 1027.4761,0 z" /><path
           inkscape:connector-curvature="0"
           id="path3108-5"
           style="fill:none;stroke:#838485;stroke-width:256.38198853;stroke-linecap:butt;stroke-linejoin:round;stroke-miterlimit:4;stroke-opacity:1;stroke-dasharray:none"
           d="m 1119.98,839.332 c 5.97,0 10.82,5.227 10.82,11.68 l 0,904.848 c 0,6.44 -4.85,11.68 -10.82,11.68 l -1027.4761,0 c -5.9805,0 -10.8203,-5.24 -10.8203,-11.68 l 0,-904.848 c 0,-6.453 4.8398,-11.68 10.8203,-11.68 l 1027.4761,0 z" /><path
           inkscape:connector-curvature="0"
           id="path3110-8"
           style="fill:none;stroke:#8c8d8d;stroke-width:239.29100037;stroke-linecap:butt;stroke-linejoin:round;stroke-miterlimit:4;stroke-opacity:1;stroke-dasharray:none"
           d="m 1119.98,839.332 c 5.97,0 10.82,5.227 10.82,11.68 l 0,904.848 c 0,6.44 -4.85,11.68 -10.82,11.68 l -1027.4761,0 c -5.9805,0 -10.8203,-5.24 -10.8203,-11.68 l 0,-904.848 c 0,-6.453 4.8398,-11.68 10.8203,-11.68 l 1027.4761,0 z" /><path
           inkscape:connector-curvature="0"
           id="path3112-2"
           style="fill:none;stroke:#949594;stroke-width:222.19799805;stroke-linecap:butt;stroke-linejoin:round;stroke-miterlimit:4;stroke-opacity:1;stroke-dasharray:none"
           d="m 1119.98,839.332 c 5.97,0 10.82,5.227 10.82,11.68 l 0,904.848 c 0,6.44 -4.85,11.68 -10.82,11.68 l -1027.4761,0 c -5.9805,0 -10.8203,-5.24 -10.8203,-11.68 l 0,-904.848 c 0,-6.453 4.8398,-11.68 10.8203,-11.68 l 1027.4761,0 z" /><path
           inkscape:connector-curvature="0"
           id="path3114-8"
           style="fill:none;stroke:#9c9d9c;stroke-width:205.10600281;stroke-linecap:butt;stroke-linejoin:round;stroke-miterlimit:4;stroke-opacity:1;stroke-dasharray:none"
           d="m 1119.98,839.332 c 5.97,0 10.82,5.227 10.82,11.68 l 0,904.848 c 0,6.44 -4.85,11.68 -10.82,11.68 l -1027.4761,0 c -5.9805,0 -10.8203,-5.24 -10.8203,-11.68 l 0,-904.848 c 0,-6.453 4.8398,-11.68 10.8203,-11.68 l 1027.4761,0 z" /><path
           inkscape:connector-curvature="0"
           id="path3116-68"
           style="fill:none;stroke:#a6a6a5;stroke-width:188.01400757;stroke-linecap:butt;stroke-linejoin:round;stroke-miterlimit:4;stroke-opacity:1;stroke-dasharray:none"
           d="m 1119.98,839.332 c 5.97,0 10.82,5.227 10.82,11.68 l 0,904.848 c 0,6.44 -4.85,11.68 -10.82,11.68 l -1027.4761,0 c -5.9805,0 -10.8203,-5.24 -10.8203,-11.68 l 0,-904.848 c 0,-6.453 4.8398,-11.68 10.8203,-11.68 l 1027.4761,0 z" /><path
           inkscape:connector-curvature="0"
           id="path3118-5"
           style="fill:none;stroke:#afafad;stroke-width:170.92199707;stroke-linecap:butt;stroke-linejoin:round;stroke-miterlimit:4;stroke-opacity:1;stroke-dasharray:none"
           d="m 1119.98,839.332 c 5.97,0 10.82,5.227 10.82,11.68 l 0,904.848 c 0,6.44 -4.85,11.68 -10.82,11.68 l -1027.4761,0 c -5.9805,0 -10.8203,-5.24 -10.8203,-11.68 l 0,-904.848 c 0,-6.453 4.8398,-11.68 10.8203,-11.68 l 1027.4761,0 z" /><path
           inkscape:connector-curvature="0"
           id="path3120-3"
           style="fill:none;stroke:#b7b7b5;stroke-width:153.83000183;stroke-linecap:butt;stroke-linejoin:round;stroke-miterlimit:4;stroke-opacity:1;stroke-dasharray:none"
           d="m 1119.98,839.332 c 5.97,0 10.82,5.227 10.82,11.68 l 0,904.848 c 0,6.44 -4.85,11.68 -10.82,11.68 l -1027.4761,0 c -5.9805,0 -10.8203,-5.24 -10.8203,-11.68 l 0,-904.848 c 0,-6.453 4.8398,-11.68 10.8203,-11.68 l 1027.4761,0 z" /><path
           inkscape:connector-curvature="0"
           id="path3122-4"
           style="fill:none;stroke:#c0bebd;stroke-width:136.73800659;stroke-linecap:butt;stroke-linejoin:round;stroke-miterlimit:4;stroke-opacity:1;stroke-dasharray:none"
           d="m 1119.98,839.332 c 5.97,0 10.82,5.227 10.82,11.68 l 0,904.848 c 0,6.44 -4.85,11.68 -10.82,11.68 l -1027.4761,0 c -5.9805,0 -10.8203,-5.24 -10.8203,-11.68 l 0,-904.848 c 0,-6.453 4.8398,-11.68 10.8203,-11.68 l 1027.4761,0 z" /><path
           inkscape:connector-curvature="0"
           id="path3124-0"
           style="fill:none;stroke:#c8c7c6;stroke-width:119.64499664;stroke-linecap:butt;stroke-linejoin:round;stroke-miterlimit:4;stroke-opacity:1;stroke-dasharray:none"
           d="m 1119.98,839.332 c 5.97,0 10.82,5.227 10.82,11.68 l 0,904.848 c 0,6.44 -4.85,11.68 -10.82,11.68 l -1027.4761,0 c -5.9805,0 -10.8203,-5.24 -10.8203,-11.68 l 0,-904.848 c 0,-6.453 4.8398,-11.68 10.8203,-11.68 l 1027.4761,0 z" /><path
           inkscape:connector-curvature="0"
           id="path3126-1"
           style="fill:none;stroke:#d2d1cf;stroke-width:102.5530014;stroke-linecap:butt;stroke-linejoin:round;stroke-miterlimit:4;stroke-opacity:1;stroke-dasharray:none"
           d="m 1119.98,839.332 c 5.97,0 10.82,5.227 10.82,11.68 l 0,904.848 c 0,6.44 -4.85,11.68 -10.82,11.68 l -1027.4761,0 c -5.9805,0 -10.8203,-5.24 -10.8203,-11.68 l 0,-904.848 c 0,-6.453 4.8398,-11.68 10.8203,-11.68 l 1027.4761,0 z" /><path
           inkscape:connector-curvature="0"
           id="path3128-7"
           style="fill:none;stroke:#dadad8;stroke-width:85.46099854;stroke-linecap:butt;stroke-linejoin:round;stroke-miterlimit:4;stroke-opacity:1;stroke-dasharray:none"
           d="m 1119.98,839.332 c 5.97,0 10.82,5.227 10.82,11.68 l 0,904.848 c 0,6.44 -4.85,11.68 -10.82,11.68 l -1027.4761,0 c -5.9805,0 -10.8203,-5.24 -10.8203,-11.68 l 0,-904.848 c 0,-6.453 4.8398,-11.68 10.8203,-11.68 l 1027.4761,0 z" /><path
           inkscape:connector-curvature="0"
           id="path3130-7"
           style="fill:none;stroke:#e2e1e0;stroke-width:68.3690033;stroke-linecap:butt;stroke-linejoin:round;stroke-miterlimit:4;stroke-opacity:1;stroke-dasharray:none"
           d="m 1119.98,839.332 c 5.97,0 10.82,5.227 10.82,11.68 l 0,904.848 c 0,6.44 -4.85,11.68 -10.82,11.68 l -1027.4761,0 c -5.9805,0 -10.8203,-5.24 -10.8203,-11.68 l 0,-904.848 c 0,-6.453 4.8398,-11.68 10.8203,-11.68 l 1027.4761,0 z" /><path
           inkscape:connector-curvature="0"
           id="path3132-8"
           style="fill:none;stroke:#eaebea;stroke-width:51.27600098;stroke-linecap:butt;stroke-linejoin:round;stroke-miterlimit:4;stroke-opacity:1;stroke-dasharray:none"
           d="m 1119.98,839.332 c 5.97,0 10.82,5.227 10.82,11.68 l 0,904.848 c 0,6.44 -4.85,11.68 -10.82,11.68 l -1027.4761,0 c -5.9805,0 -10.8203,-5.24 -10.8203,-11.68 l 0,-904.848 c 0,-6.453 4.8398,-11.68 10.8203,-11.68 l 1027.4761,0 z" /><path
           inkscape:connector-curvature="0"
           id="path3134-0"
           style="fill:none;stroke:#f3f3f3;stroke-width:34.18399811;stroke-linecap:butt;stroke-linejoin:round;stroke-miterlimit:4;stroke-opacity:1;stroke-dasharray:none"
           d="m 1119.98,839.332 c 5.97,0 10.82,5.227 10.82,11.68 l 0,904.848 c 0,6.44 -4.85,11.68 -10.82,11.68 l -1027.4761,0 c -5.9805,0 -10.8203,-5.24 -10.8203,-11.68 l 0,-904.848 c 0,-6.453 4.8398,-11.68 10.8203,-11.68 l 1027.4761,0 z" /><path
           inkscape:connector-curvature="0"
           id="path3136-8"
           style="fill:none;stroke:#fafafa;stroke-width:17.09199905;stroke-linecap:butt;stroke-linejoin:round;stroke-miterlimit:4;stroke-opacity:1;stroke-dasharray:none"
           d="m 1119.98,839.332 c 5.97,0 10.82,5.227 10.82,11.68 l 0,904.848 c 0,6.44 -4.85,11.68 -10.82,11.68 l -1027.4761,0 c -5.9805,0 -10.8203,-5.24 -10.8203,-11.68 l 0,-904.848 c 0,-6.453 4.8398,-11.68 10.8203,-11.68 l 1027.4761,0 z" /></g></g><path
       inkscape:connector-curvature="0"
       id="path3224-9"
       style="fill:#ffffff;fill-opacity:1;fill-rule:nonzero;stroke:none"
       d="m 414.18444,140.23626 c 0.544,0 0.984,-0.475 0.984,-1.061 l 0,-82.260895 c 0,-0.586 -0.44,-1.061 -0.984,-1.061 l -93.4063,0 c -0.5445,0 -0.9844,0.475 -0.9844,1.061 l 0,82.260895 c 0,0.586 0.4399,1.061 0.9844,1.061 l 93.4063,0" /><path
       inkscape:connector-curvature="0"
       id="path3226-7"
       style="fill:none;stroke:#100f0d;stroke-width:1.36739993;stroke-linecap:butt;stroke-linejoin:miter;stroke-miterlimit:4;stroke-opacity:1;stroke-dasharray:none"
       d="m 414.18444,140.23626 c 0.544,0 0.984,-0.475 0.984,-1.061 l 0,-82.260895 c 0,-0.586 -0.44,-1.061 -0.984,-1.061 l -93.4063,0 c -0.5445,0 -0.9844,0.475 -0.9844,1.061 l 0,82.260895 c 0,0.586 0.4399,1.061 0.9844,1.061 l 93.4063,0 z" /><g
       transform="scale(1,-1)"
       style="font-size:19.20000076px;font-style:normal;font-variant:normal;font-weight:normal;font-stretch:normal;line-height:125%;letter-spacing:0px;word-spacing:0px;fill:#000000;fill-opacity:1;stroke:none;font-family:Allerta Stencil;-inkscape-font-specification:Allerta Stencil"
       id="text4814-8"><path
         d="m 333.04439,-129.84686 -2.72813,0 -0.7875,3.13125 2.74688,0 0.76875,-3.13125 m -1.40625,-5.33438 -0.975,3.89063 2.7375,0 0.98437,-3.89063 1.5,0 -0.96562,3.89063 2.925,0 0,1.44375 -3.29063,0 -0.76875,3.13125 2.98125,0 0,1.43437 -3.34687,0 -0.975,3.88125 -1.5,0 0.96562,-3.88125 -2.74687,0 -0.96563,3.88125 -1.50938,0 0.975,-3.88125 -2.95312,0 0,-1.43437 3.3,0 0.7875,-3.13125 -3.01875,0 0,-1.44375 3.38438,0 0.95625,-3.89063 1.51875,0"
         style=""
         id="path10992" /></g><path
       d="m 277.1088,118.5696 12.0789,0 0,3.98828 -12.0789,0 0,-3.98828 z"
       style="fill:#100f0d;fill-opacity:1;fill-rule:nonzero;stroke:none"
       id="path3262-0-8-9"
       inkscape:connector-curvature="0" /><path
       inkscape:connector-curvature="0"
       id="path3264-8-6-7"
       style="fill:none;stroke:#100f0d;stroke-width:1.36739993;stroke-linecap:butt;stroke-linejoin:miter;stroke-miterlimit:4;stroke-opacity:1;stroke-dasharray:none"
       d="m 277.1088,118.5696 12.0789,0 0,3.98828 -12.0789,0 0,-3.98828 z" /><g
       id="g4773-5-4-2"
       transform="translate(-30.91392,41.180548)"><path
         d="m 338.184,32.3512 12.077,0 0,3.98789 -12.077,0 0,-3.98789 z"
         style="fill:#100f0d;fill-opacity:1;fill-rule:nonzero;stroke:none"
         id="path3436-0-3-5"
         inkscape:connector-curvature="0" /><path
         d="m 338.184,32.3512 12.077,0 0,3.98789 -12.077,0 0,-3.98789 z"
         style="fill:none;stroke:#100f0d;stroke-width:1.36739993;stroke-linecap:butt;stroke-linejoin:miter;stroke-miterlimit:4;stroke-opacity:1;stroke-dasharray:none"
         id="path3438-9-3-0"
         inkscape:connector-curvature="0" /></g><g
       id="g3970-6-3-2"
       transform="matrix(0.17939328,0,0,0.36876131,256.80974,62.584156)"
       style="stroke-width:5.31875944;stroke-miterlimit:4;stroke-dasharray:none"><path
         d="m 351.145,34.6301 -119.389,0 0,123.0629 -119.873,0"
         style="fill:none;stroke:#100f0d;stroke-width:5.31875944;stroke-linecap:butt;stroke-linejoin:miter;stroke-miterlimit:4;stroke-opacity:1;stroke-dasharray:none"
         id="path3440-3-8-4"
         inkscape:connector-curvature="0" /></g><path
       d="m 415.77239,118.5696 12.0789,0 0,3.98828 -12.0789,0 0,-3.98828 z"
       style="fill:#100f0d;fill-opacity:1;fill-rule:nonzero;stroke:none"
       id="path3262-0-8-5"
       inkscape:connector-curvature="0" /><path
       inkscape:connector-curvature="0"
       id="path3264-8-6-4"
       style="fill:none;stroke:#100f0d;stroke-width:1.36739993;stroke-linecap:butt;stroke-linejoin:miter;stroke-miterlimit:4;stroke-opacity:1;stroke-dasharray:none"
       d="m 415.77239,118.5696 12.0789,0 0,3.98828 -12.0789,0 0,-3.98828 z" /><g
       id="g4773-5-4-1"
       transform="translate(107.74967,41.180548)"><path
         d="m 338.184,32.3512 12.077,0 0,3.98789 -12.077,0 0,-3.98789 z"
         style="fill:#100f0d;fill-opacity:1;fill-rule:nonzero;stroke:none"
         id="path3436-0-3-2"
         inkscape:connector-curvature="0" /><path
         d="m 338.184,32.3512 12.077,0 0,3.98789 -12.077,0 0,-3.98789 z"
         style="fill:none;stroke:#100f0d;stroke-width:1.36739993;stroke-linecap:butt;stroke-linejoin:miter;stroke-miterlimit:4;stroke-opacity:1;stroke-dasharray:none"
         id="path3438-9-3-2"
         inkscape:connector-curvature="0" /></g><g
       id="g3970-6-3-7"
       transform="matrix(0.17939328,0,0,0.36876131,395.47333,62.584156)"
       style="stroke-width:5.31875944;stroke-miterlimit:4;stroke-dasharray:none"><path
         d="m 351.145,34.6301 -119.389,0 0,123.0629 -119.873,0"
         style="fill:none;stroke:#100f0d;stroke-width:5.31875944;stroke-linecap:butt;stroke-linejoin:miter;stroke-miterlimit:4;stroke-opacity:1;stroke-dasharray:none"
         id="path3440-3-8-79"
         inkscape:connector-curvature="0" /></g><path
       inkscape:connector-curvature="0"
       id="path3092"
       style="fill:#09a3cd;fill-opacity:1;fill-rule:nonzero;stroke:none"
       d="m 231.756,96.1621 87.197,59.3929" /><path
       inkscape:connector-curvature="0"
       id="path3094"
       style="fill:none;stroke:#0d99d4;stroke-width:1;stroke-linecap:butt;stroke-linejoin:miter;stroke-miterlimit:4;stroke-opacity:1;stroke-dasharray:none"
       d="m 226.956,96.1621 87.197,59.3929" /><path
       inkscape:connector-curvature="0"
       id="path3442"
       style="fill:#ffffff;fill-opacity:1;fill-rule:nonzero;stroke:none"
       d="m 228.81751,81.286362 c 9.255,0 16.759,7.5028 16.759,16.759 0,9.254898 -7.504,16.757898 -16.759,16.757898 -9.256,0 -16.759,-7.503 -16.759,-16.757898 0,-9.2562 7.503,-16.759 16.759,-16.759" /><path
       inkscape:connector-curvature="0"
       id="path3444"
       style="fill:none;stroke:#0d99d4;stroke-width:1;stroke-linecap:butt;stroke-linejoin:miter;stroke-miterlimit:4;stroke-opacity:1;stroke-dasharray:none"
       d="m 228.81751,81.286362 c 9.255,0 16.759,7.5028 16.759,16.759 0,9.254898 -7.504,16.757898 -16.759,16.757898 -9.256,0 -16.759,-7.503 -16.759,-16.757898 0,-9.2562 7.503,-16.759 16.759,-16.759 z" /><path
       inkscape:connector-curvature="0"
       id="path3446"
       style="fill:none;stroke:#0d99d4;stroke-width:1;stroke-linecap:butt;stroke-linejoin:miter;stroke-miterlimit:4;stroke-opacity:1;stroke-dasharray:none"
       d="m 266.011,155.708 180,0" /><path
       inkscape:connector-curvature="0"
       id="path3448"
       style="fill:#0d99d4;fill-opacity:1;fill-rule:nonzero;stroke:none"
       d="m 266.949,164.314 0,12.032 -4.5,0 0,1.593 10.812,0 0,-1.593 -4.5,0 0,-12.032 -1.812,0" /><path
       inkscape:connector-curvature="0"
       id="path3450"
       style="fill:#0d99d4;fill-opacity:1;fill-rule:nonzero;stroke:none"
       d="m 274.887,164.314 0,13.625 1.688,0 0,-4.884 c 0.778,0.902 1.759,1.353 2.945,1.353 0.729,0 1.361,-0.144 1.898,-0.431 0.538,-0.289 0.922,-0.688 1.154,-1.196 0.231,-0.508 0.346,-1.245 0.346,-2.211 l 0,-6.256 -1.687,0 0,6.258 c 0,0.836 -0.18,1.446 -0.539,1.826 -0.359,0.381 -0.868,0.573 -1.526,0.573 -0.492,0 -0.955,-0.129 -1.388,-0.386 -0.434,-0.257 -0.742,-0.606 -0.927,-1.046 -0.185,-0.441 -0.276,-1.048 -0.276,-1.822 l 0,-5.403 -1.688,0" /><path
       inkscape:connector-curvature="0"
       id="path3452"
       style="fill:#0d99d4;fill-opacity:1;fill-rule:nonzero;stroke:none"
       d="m 286.722,170.189 5.531,0 c -0.074,0.833 -0.286,1.457 -0.633,1.874 -0.536,0.647 -1.229,0.97 -2.08,0.97 -0.772,0 -1.42,-0.258 -1.946,-0.773 -0.525,-0.517 -0.816,-1.207 -0.872,-2.071 z m 5.513,-2.687 1.744,-0.219 c -0.273,-1.01 -0.78,-1.793 -1.519,-2.351 -0.74,-0.557 -1.684,-0.836 -2.834,-0.836 -1.448,0 -2.596,0.444 -3.444,1.333 -0.848,0.888 -1.272,2.135 -1.272,3.739 0,1.66 0.428,2.948 1.286,3.865 0.857,0.916 1.97,1.375 3.337,1.375 1.323,0 2.405,-0.45 3.244,-1.349 0.839,-0.901 1.258,-2.166 1.258,-3.797 0,-0.1 -0.003,-0.25 -0.009,-0.448 l -7.398,0 c 0.063,-1.081 0.371,-1.908 0.924,-2.482 0.554,-0.574 1.244,-0.861 2.072,-0.861 0.615,0 1.14,0.161 1.576,0.484 0.435,0.323 0.78,0.839 1.035,1.547" /><path
       inkscape:connector-curvature="0"
       id="path3454"
       style="fill:#0d99d4;fill-opacity:1;fill-rule:nonzero;stroke:none"
       d="m 307.72,169.283 c -0.616,-0.248 -1.54,-0.459 -2.771,-0.633 -0.698,-0.099 -1.191,-0.212 -1.48,-0.336 -0.289,-0.125 -0.512,-0.306 -0.67,-0.544 -0.157,-0.24 -0.235,-0.504 -0.235,-0.797 0,-0.448 0.171,-0.821 0.513,-1.118 0.341,-0.298 0.842,-0.447 1.501,-0.447 0.652,0 1.232,0.141 1.741,0.424 0.508,0.281 0.881,0.668 1.119,1.159 0.182,0.379 0.273,0.939 0.273,1.677 l 0.009,0.615 z m 0.094,-3.719 c -0.602,-0.537 -1.191,-0.916 -1.77,-1.136 -0.578,-0.221 -1.198,-0.332 -1.86,-0.332 -1.093,0 -1.934,0.265 -2.52,0.795 -0.587,0.531 -0.881,1.209 -0.881,2.036 0,0.483 0.111,0.927 0.333,1.327 0.221,0.4 0.512,0.721 0.872,0.963 0.359,0.242 0.763,0.426 1.214,0.551 0.331,0.086 0.831,0.17 1.5,0.25 1.362,0.162 2.365,0.354 3.009,0.578 0.006,0.228 0.009,0.373 0.009,0.435 0,0.68 -0.158,1.158 -0.475,1.437 -0.429,0.377 -1.066,0.565 -1.911,0.565 -0.79,0 -1.372,-0.138 -1.748,-0.413 -0.376,-0.275 -0.654,-0.763 -0.835,-1.462 l -1.687,0.219 c 0.149,0.698 0.396,1.262 0.738,1.691 0.342,0.43 0.837,0.76 1.485,0.993 0.647,0.231 1.398,0.347 2.251,0.347 0.846,0 1.535,-0.099 2.064,-0.297 0.529,-0.197 0.919,-0.445 1.168,-0.745 0.249,-0.3 0.423,-0.678 0.522,-1.135 0.056,-0.284 0.084,-0.797 0.084,-1.542 l 0,-2.231 c 0,-1.556 0.034,-2.54 0.101,-2.954 0.067,-0.414 0.2,-0.811 0.399,-1.19 l -1.718,0 c -0.179,0.356 -0.293,0.773 -0.344,1.25" /><path
       inkscape:connector-curvature="0"
       id="path3456"
       style="fill:#0d99d4;fill-opacity:1;fill-rule:nonzero;stroke:none"
       d="m 311.93,164.314 0,9.875 1.531,0 0,-1.49 c 0.377,0.696 0.725,1.155 1.043,1.376 0.32,0.222 0.67,0.333 1.053,0.333 0.553,0 1.114,-0.178 1.686,-0.533 l -0.581,-1.533 c -0.4,0.231 -0.798,0.347 -1.197,0.347 -0.356,0 -0.676,-0.11 -0.96,-0.33 -0.284,-0.22 -0.487,-0.526 -0.61,-0.917 -0.185,-0.596 -0.277,-1.247 -0.277,-1.954 l 0,-5.174 -1.688,0" /><path
       inkscape:connector-curvature="0"
       id="path3458"
       style="fill:#0d99d4;fill-opacity:1;fill-rule:nonzero;stroke:none"
       d="m 321.925,165.805 0.219,-1.477 c -0.472,-0.099 -0.894,-0.148 -1.267,-0.148 -0.608,0 -1.08,0.095 -1.415,0.287 -0.335,0.191 -0.571,0.443 -0.708,0.756 -0.136,0.312 -0.204,0.97 -0.204,1.972 l 0,5.672 -1.25,0 0,1.313 1.25,0 0,2.443 1.688,1.004 0,-3.447 1.687,0 0,-1.313 -1.687,0 0,-5.762 c 0,-0.476 0.029,-0.783 0.088,-0.917 0.059,-0.137 0.155,-0.246 0.289,-0.326 0.134,-0.081 0.325,-0.12 0.574,-0.12 0.186,0 0.432,0.02 0.736,0.063" /><path
       inkscape:connector-curvature="0"
       id="path3460"
       style="fill:#0d99d4;fill-opacity:1;fill-rule:nonzero;stroke:none"
       d="m 328.844,164.314 0,13.625 1.688,0 0,-4.884 c 0.778,0.902 1.76,1.353 2.945,1.353 0.729,0 1.361,-0.144 1.899,-0.431 0.537,-0.289 0.921,-0.688 1.153,-1.196 0.231,-0.508 0.347,-1.245 0.347,-2.211 l 0,-6.256 -1.688,0 0,6.258 c 0,0.836 -0.18,1.446 -0.539,1.826 -0.359,0.381 -0.868,0.573 -1.526,0.573 -0.492,0 -0.955,-0.129 -1.388,-0.386 -0.434,-0.257 -0.742,-0.606 -0.927,-1.046 -0.184,-0.441 -0.276,-1.048 -0.276,-1.822 l 0,-5.403 -1.688,0" /><path
       inkscape:connector-curvature="0"
       id="path3462"
       style="fill:#0d99d4;fill-opacity:1;fill-rule:nonzero;stroke:none"
       d="m 345.804,169.283 c -0.616,-0.248 -1.54,-0.459 -2.771,-0.633 -0.698,-0.099 -1.191,-0.212 -1.48,-0.336 -0.289,-0.125 -0.512,-0.306 -0.67,-0.544 -0.157,-0.24 -0.235,-0.504 -0.235,-0.797 0,-0.448 0.171,-0.821 0.513,-1.118 0.341,-0.298 0.842,-0.447 1.501,-0.447 0.652,0 1.232,0.141 1.741,0.424 0.508,0.281 0.881,0.668 1.119,1.159 0.182,0.379 0.273,0.939 0.273,1.677 l 0.009,0.615 z m 0.094,-3.719 c -0.602,-0.537 -1.191,-0.916 -1.77,-1.136 -0.578,-0.221 -1.198,-0.332 -1.86,-0.332 -1.093,0 -1.934,0.265 -2.52,0.795 -0.587,0.531 -0.881,1.209 -0.881,2.036 0,0.483 0.111,0.927 0.333,1.327 0.221,0.4 0.512,0.721 0.872,0.963 0.359,0.242 0.763,0.426 1.214,0.551 0.331,0.086 0.831,0.17 1.5,0.25 1.362,0.162 2.365,0.354 3.009,0.578 0.006,0.228 0.009,0.373 0.009,0.435 0,0.68 -0.158,1.158 -0.475,1.437 -0.429,0.377 -1.066,0.565 -1.911,0.565 -0.79,0 -1.372,-0.138 -1.748,-0.413 -0.376,-0.275 -0.654,-0.763 -0.835,-1.462 l -1.687,0.219 c 0.149,0.698 0.395,1.262 0.738,1.691 0.342,0.43 0.837,0.76 1.485,0.993 0.647,0.231 1.398,0.347 2.251,0.347 0.846,0 1.535,-0.099 2.064,-0.297 0.529,-0.197 0.919,-0.445 1.168,-0.745 0.249,-0.3 0.423,-0.678 0.522,-1.135 0.056,-0.284 0.084,-0.797 0.084,-1.542 l 0,-2.231 c 0,-1.556 0.034,-2.54 0.101,-2.954 0.067,-0.414 0.2,-0.811 0.399,-1.19 l -1.718,0 c -0.179,0.356 -0.293,0.773 -0.344,1.25" /><path
       inkscape:connector-curvature="0"
       id="path3464"
       style="fill:#0d99d4;fill-opacity:1;fill-rule:nonzero;stroke:none"
       d="m 351.484,169.195 c 0,-1.269 0.258,-2.208 0.775,-2.814 0.518,-0.608 1.144,-0.91 1.879,-0.91 0.748,0 1.388,0.314 1.921,0.942 0.533,0.628 0.8,1.603 0.8,2.921 0,1.258 -0.261,2.198 -0.781,2.824 -0.521,0.625 -1.142,0.938 -1.865,0.938 -0.716,0 -1.35,-0.334 -1.902,-0.998 -0.552,-0.666 -0.827,-1.633 -0.827,-2.903 z m -1.5,-8.662 0,13.656 1.531,0 0,-1.289 c 0.361,0.503 0.767,0.88 1.221,1.131 0.453,0.251 1.003,0.377 1.648,0.377 0.845,0 1.59,-0.217 2.237,-0.65 0.645,-0.434 1.133,-1.045 1.463,-1.835 0.329,-0.79 0.494,-1.655 0.494,-2.597 0,-1.01 -0.182,-1.918 -0.545,-2.726 -0.364,-0.809 -0.891,-1.428 -1.582,-1.859 -0.693,-0.43 -1.42,-0.645 -2.183,-0.645 -0.558,0 -1.06,0.117 -1.503,0.353 -0.444,0.235 -0.808,0.532 -1.094,0.892 l 0,-4.808 -1.687,0" /><path
       inkscape:connector-curvature="0"
       id="path3466"
       style="fill:#0d99d4;fill-opacity:1;fill-rule:nonzero;stroke:none"
       d="m 362.069,169.195 c 0,-1.269 0.258,-2.208 0.775,-2.814 0.518,-0.608 1.144,-0.91 1.879,-0.91 0.748,0 1.388,0.314 1.921,0.942 0.533,0.628 0.8,1.603 0.8,2.921 0,1.258 -0.261,2.198 -0.781,2.824 -0.521,0.625 -1.142,0.938 -1.865,0.938 -0.716,0 -1.35,-0.334 -1.902,-0.998 -0.552,-0.666 -0.827,-1.633 -0.827,-2.903 z m -1.5,-8.662 0,13.656 1.531,0 0,-1.289 c 0.36,0.503 0.767,0.88 1.221,1.131 0.453,0.251 1.003,0.377 1.648,0.377 0.845,0 1.59,-0.217 2.237,-0.65 0.645,-0.434 1.133,-1.045 1.462,-1.835 0.33,-0.79 0.495,-1.655 0.495,-2.597 0,-1.01 -0.182,-1.918 -0.545,-2.726 -0.364,-0.809 -0.891,-1.428 -1.582,-1.859 -0.693,-0.43 -1.42,-0.645 -2.183,-0.645 -0.559,0 -1.06,0.117 -1.503,0.353 -0.444,0.235 -0.808,0.532 -1.094,0.892 l 0,-4.808 -1.687,0" /><path
       inkscape:connector-curvature="0"
       id="path3468"
       style="fill:#0d99d4;fill-opacity:1;fill-rule:nonzero;stroke:none"
       d="m 372.435,170.189 5.531,0 c -0.075,0.833 -0.286,1.457 -0.634,1.874 -0.536,0.647 -1.229,0.97 -2.081,0.97 -0.771,0 -1.418,-0.258 -1.944,-0.773 -0.525,-0.517 -0.816,-1.207 -0.872,-2.071 z m 5.513,-2.687 1.743,-0.219 c -0.273,-1.01 -0.78,-1.793 -1.52,-2.351 -0.739,-0.557 -1.683,-0.836 -2.833,-0.836 -1.448,0 -2.595,0.444 -3.444,1.333 -0.848,0.888 -1.271,2.135 -1.271,3.739 0,1.66 0.428,2.948 1.286,3.865 0.857,0.916 1.969,1.375 3.337,1.375 1.323,0 2.404,-0.45 3.243,-1.349 0.839,-0.901 1.259,-2.166 1.259,-3.797 0,-0.1 -0.004,-0.25 -0.01,-0.448 l -7.397,0 c 0.062,-1.081 0.369,-1.908 0.923,-2.482 0.554,-0.574 1.244,-0.861 2.071,-0.861 0.616,0 1.141,0.161 1.577,0.484 0.435,0.323 0.781,0.839 1.036,1.547" /><path
       inkscape:connector-curvature="0"
       id="path3470"
       style="fill:#0d99d4;fill-opacity:1;fill-rule:nonzero;stroke:none"
       d="m 381.77,164.314 0,9.875 1.531,0 0,-1.403 c 0.724,1.081 1.769,1.622 3.135,1.622 0.593,0 1.139,-0.107 1.636,-0.32 0.498,-0.215 0.87,-0.494 1.117,-0.842 0.247,-0.347 0.421,-0.759 0.519,-1.236 0.062,-0.31 0.093,-0.852 0.093,-1.626 l 0,-6.07 -1.687,0 0,6.013 c 0,0.683 -0.065,1.193 -0.195,1.531 -0.129,0.338 -0.359,0.609 -0.689,0.81 -0.33,0.201 -0.718,0.303 -1.162,0.303 -0.71,0 -1.322,-0.227 -1.837,-0.68 -0.516,-0.453 -0.773,-1.312 -0.773,-2.578 l 0,-5.399 -1.688,0" /><path
       inkscape:connector-curvature="0"
       id="path3472"
       style="fill:#0d99d4;fill-opacity:1;fill-rule:nonzero;stroke:none"
       d="m 391.73,167.314 1.656,0.219 c 0.093,-0.666 0.351,-1.176 0.775,-1.531 0.423,-0.354 1.015,-0.531 1.775,-0.531 0.767,0 1.335,0.156 1.706,0.468 0.371,0.313 0.557,0.68 0.557,1.102 0,0.377 -0.162,0.675 -0.488,0.891 -0.227,0.149 -0.795,0.338 -1.703,0.568 -1.222,0.309 -2.072,0.576 -2.548,0.803 -0.475,0.226 -0.835,0.539 -1.081,0.938 -0.245,0.4 -0.368,0.841 -0.368,1.324 0,0.44 0.101,0.847 0.302,1.222 0.201,0.375 0.475,0.686 0.82,0.934 0.26,0.191 0.615,0.354 1.063,0.488 0.448,0.133 0.929,0.199 1.442,0.199 0.773,0 1.451,-0.112 2.035,-0.336 0.585,-0.224 1.016,-0.527 1.294,-0.91 0.279,-0.383 0.47,-0.894 0.575,-1.535 l -1.624,-0.219 c -0.075,0.51 -0.29,0.908 -0.644,1.196 -0.356,0.285 -0.858,0.429 -1.506,0.429 -0.767,0 -1.313,-0.127 -1.641,-0.381 -0.327,-0.254 -0.491,-0.55 -0.491,-0.892 0,-0.217 0.069,-0.412 0.204,-0.584 0.136,-0.18 0.349,-0.33 0.64,-0.447 0.166,-0.062 0.657,-0.205 1.473,-0.427 1.179,-0.316 2.003,-0.575 2.469,-0.777 0.466,-0.201 0.831,-0.494 1.097,-0.877 0.266,-0.384 0.399,-0.861 0.399,-1.431 0,-0.557 -0.163,-1.082 -0.488,-1.574 -0.325,-0.493 -0.794,-0.873 -1.406,-1.143 -0.612,-0.27 -1.306,-0.404 -2.079,-0.404 -1.281,0 -2.258,0.27 -2.929,0.811 -0.672,0.541 -1.1,1.344 -1.286,2.407" /><path
       inkscape:connector-curvature="0"
       id="path3474"
       style="fill:#0d99d4;fill-opacity:1;fill-rule:nonzero;stroke:none"
       d="m 407.16,164.314 0,13.625 1.687,0 0,-4.884 c 0.778,0.902 1.759,1.353 2.945,1.353 0.728,0 1.361,-0.144 1.898,-0.431 0.537,-0.289 0.922,-0.688 1.153,-1.196 0.232,-0.508 0.348,-1.245 0.348,-2.211 l 0,-6.256 -1.688,0 0,6.258 c 0,0.836 -0.18,1.446 -0.54,1.826 -0.359,0.381 -0.868,0.573 -1.525,0.573 -0.492,0 -0.954,-0.129 -1.388,-0.386 -0.433,-0.257 -0.742,-0.606 -0.926,-1.046 -0.185,-0.441 -0.277,-1.048 -0.277,-1.822 l 0,-5.403 -1.687,0" /><path
       inkscape:connector-curvature="0"
       id="path3476"
       style="fill:#0d99d4;fill-opacity:1;fill-rule:nonzero;stroke:none"
       d="m 418.995,170.189 5.531,0 c -0.074,0.833 -0.286,1.457 -0.634,1.874 -0.535,0.647 -1.228,0.97 -2.08,0.97 -0.771,0 -1.42,-0.258 -1.945,-0.773 -0.526,-0.517 -0.817,-1.207 -0.872,-2.071 z m 5.512,-2.687 1.744,-0.219 c -0.273,-1.01 -0.78,-1.793 -1.519,-2.351 -0.739,-0.557 -1.684,-0.836 -2.833,-0.836 -1.448,0 -2.597,0.444 -3.444,1.333 -0.849,0.888 -1.273,2.135 -1.273,3.739 0,1.66 0.429,2.948 1.286,3.865 0.858,0.916 1.97,1.375 3.337,1.375 1.323,0 2.405,-0.45 3.244,-1.349 0.839,-0.901 1.258,-2.166 1.258,-3.797 0,-0.1 -0.003,-0.25 -0.009,-0.448 l -7.397,0 c 0.062,-1.081 0.37,-1.908 0.924,-2.482 0.553,-0.574 1.244,-0.861 2.071,-0.861 0.615,0 1.141,0.161 1.576,0.484 0.436,0.323 0.78,0.839 1.035,1.547" /><path
       inkscape:connector-curvature="0"
       id="path3478"
       style="fill:#0d99d4;fill-opacity:1;fill-rule:nonzero;stroke:none"
       d="m 428.33,164.314 0,9.875 1.531,0 0,-1.49 c 0.377,0.696 0.724,1.155 1.043,1.376 0.319,0.222 0.67,0.333 1.053,0.333 0.552,0 1.114,-0.178 1.685,-0.533 l -0.581,-1.533 c -0.399,0.231 -0.798,0.347 -1.196,0.347 -0.357,0 -0.677,-0.11 -0.96,-0.33 -0.284,-0.22 -0.487,-0.526 -0.611,-0.917 -0.184,-0.596 -0.277,-1.247 -0.277,-1.954 l 0,-5.174 -1.687,0" /><path
       inkscape:connector-curvature="0"
       id="path3480"
       style="fill:#0d99d4;fill-opacity:1;fill-rule:nonzero;stroke:none"
       d="m 435.918,170.189 5.531,0 c -0.074,0.833 -0.285,1.457 -0.634,1.874 -0.535,0.647 -1.229,0.97 -2.08,0.97 -0.772,0 -1.419,-0.258 -1.944,-0.773 -0.526,-0.517 -0.817,-1.207 -0.873,-2.071 z m 5.513,-2.687 1.743,-0.219 c -0.273,-1.01 -0.78,-1.793 -1.519,-2.351 -0.739,-0.557 -1.684,-0.836 -2.833,-0.836 -1.448,0 -2.596,0.444 -3.445,1.333 -0.848,0.888 -1.272,2.135 -1.272,3.739 0,1.66 0.43,2.948 1.287,3.865 0.858,0.916 1.969,1.375 3.336,1.375 1.324,0 2.405,-0.45 3.244,-1.349 0.839,-0.901 1.258,-2.166 1.258,-3.797 0,-0.1 -0.003,-0.25 -0.009,-0.448 l -7.397,0 c 0.062,-1.081 0.37,-1.908 0.924,-2.482 0.553,-0.574 1.244,-0.861 2.071,-0.861 0.615,0 1.141,0.161 1.576,0.484 0.436,0.323 0.78,0.839 1.036,1.547" /><path
       inkscape:connector-curvature="0"
       id="path3542"
       style="fill:none;stroke:#100f0d;stroke-width:1;stroke-linecap:butt;stroke-linejoin:miter;stroke-miterlimit:4;stroke-opacity:1;stroke-dasharray:none"
       d="m 0,193.501 458.022,0" /><path
       inkscape:connector-curvature="0"
       id="path3544"
       style="fill:none;stroke:#100f0d;stroke-width:1;stroke-linecap:butt;stroke-linejoin:miter;stroke-miterlimit:4;stroke-opacity:1;stroke-dasharray:none"
       d="m 0,0.5 458.022,0" /><path
       inkscape:connector-curvature="0"
       id="path3546"
       style="fill:#ee232e;fill-opacity:1;fill-rule:nonzero;stroke:none"
       d="m 244.77051,113.99781 -26.066,-13.419 9.628,-2.504998 -15.468,-15.982 25.581,13.446 -7.079,5.057998 13.404,13.402" /><g
       transform="scale(1,-1)"
       style="font-size:19.20000076px;font-style:normal;font-variant:normal;font-weight:normal;font-stretch:normal;line-height:125%;letter-spacing:0px;word-spacing:0px;fill:#000000;fill-opacity:1;stroke:none;font-family:Serif;-inkscape-font-specification:Serif"
       id="text5821"><path
         d="m 76.566112,-216.50516 c -1.231999,-0.1792 -1.702403,-0.6048 -3.7856,-0.6048 -1.030399,0 -2.352001,0.336 -3.2704,1.0752 -0.8512,0.672 -1.456,1.7248 -1.456,2.8 0,0.8736 0.224,1.9264 0.7392,2.5984 1.030399,1.3888 2.889601,2.1728 3.8528,2.8224 1.030399,0.7168 2.0384,1.6128 2.0384,2.8672 0,1.12 -0.963202,1.8592 -2.3296,1.8592 -1.500799,0 -3.046401,-1.232 -3.4944,-3.2704 -0.3808,-0.1344 -0.761601,-0.0224 -1.12,0.0672 0,1.68 0.1792,2.8672 0.4256,3.696 1.276798,0 1.321603,0.448 4.4352,0.448 1.366398,0 2.4416,-0.3808 3.3824,-1.2096 0.783999,-0.7168 1.523199,-1.7472 1.523199,-3.136 0,-1.1648 -0.5152,-1.9488 -1.164799,-2.688 -0.8736,-0.9632 -2.128001,-1.6576 -3.0016,-2.1056 -0.896,-0.448 -2.4864,-1.6128 -2.4864,-2.8896 0,-1.2544 0.739201,-2.016 1.904,-2.016 1.903998,0 2.5312,1.7248 2.9344,3.2032 0.313599,0.0896 0.8736,0.0896 1.12,-0.112 0,-1.1872 -0.0896,-2.1056 -0.2464,-3.4048"
         style="font-size:22.39999962px;font-weight:bold;font-family:Linux Libertine O;-inkscape-font-specification:Linux Libertine O Bold"
         id="path10933" /><path
         d="m 83.620011,-205.10356 0,-4.4576 c 0,-1.12 0.0896,-2.3744 0.0896,-2.3744 0,-0.2464 -0.2016,-0.3808 -0.5152,-0.3808 -0.649599,0.2464 -2.441601,0.4256 -3.9872,0.6272 -0.0448,0.1344 0,0.5824 0.0448,0.7168 1.209599,0.1344 1.456,0.2912 1.456,1.568 l 0,4.3008 c 0,1.8592 -0.246401,1.904 -1.6128,2.016 -0.1344,0.1344 -0.1344,0.6272 0,0.7616 0.940799,-0.0224 1.859201,-0.0448 3.0688,-0.0448 1.187199,0 2.105601,0.0224 3.0688,0.0448 0.1344,-0.1344 0.1344,-0.6272 0,-0.7616 -1.366399,-0.0896 -1.6128,-0.1568 -1.6128,-2.016 m -3.024,-10.6176 c 0,0.7392 0.537601,1.4784 1.4336,1.4784 1.007999,0 1.5904,-0.8064 1.5904,-1.3888 0,-0.672 -0.515201,-1.4784 -1.456,-1.4784 -1.052799,0 -1.568,0.7168 -1.568,1.3888"
         style="font-size:22.39999962px;font-weight:bold;font-family:Linux Libertine O;-inkscape-font-specification:Linux Libertine O Bold"
         id="path10935" /><path
         d="m 90.74916,-205.10356 0,-4.4576 c 0,-0.112 -0.0224,-0.224 -0.0224,-0.3136 0.873599,-0.5376 1.68,-0.784 2.0608,-0.784 0.895999,0 1.568,0.4032 1.568,1.68 l 0,3.7408 c 0,1.8816 -0.358401,2.0832 -1.2768,2.1504 -0.1344,0.1344 -0.1344,0.6272 0,0.7616 0.940799,-0.0224 1.657601,-0.0448 2.7328,-0.0448 1.075199,0 1.769601,0.0224 2.7328,0.0448 0.1344,-0.1344 0.1344,-0.6272 0,-0.7616 -0.895999,-0.0672 -1.2768,-0.2688 -1.2768,-2.1504 l 0,-3.4944 c 0,-0.5376 -0.0448,-0.9856 -0.0896,-1.2096 0.851199,-0.448 1.792,-0.7168 2.1728,-0.7168 0.896,0 1.5232,0.4032 1.5232,1.68 l 0,3.7408 c 0,1.8816 -0.3584,2.0832 -1.2768,2.1504 -0.1344,0.1344 -0.1344,0.6272 0,0.7616 0.9408,-0.0224 1.6576,-0.0448 2.7328,-0.0448 1.232,0 2.2176,0.0224 3.1808,0.0448 0.1344,-0.1344 0.1344,-0.6272 0,-0.7616 -1.3664,-0.0672 -1.7248,-0.2688 -1.7248,-2.1504 l 0,-3.4944 c 0,-2.464 -0.896,-3.584 -2.8224,-3.584 -0.8288,0 -2.732801,0.896 -4.032,1.6352 -0.336,-0.9856 -1.232001,-1.6352 -2.5312,-1.6352 -0.806399,0 -2.441601,0.8512 -3.7184,1.568 -0.0448,-0.6496 -0.112,-1.1872 -0.112,-1.1872 -0.0224,-0.2688 -0.2016,-0.3808 -0.5152,-0.3808 -0.828799,0.224 -2.172801,0.5376 -3.7184,0.7392 -0.0448,0.1344 0,0.5824 0.0448,0.7168 1.209599,0.1344 1.456,0.2912 1.456,1.568 l 0,4.1888 c 0,1.8592 -0.246401,1.904 -1.6128,2.016 -0.1344,0.1344 -0.1344,0.6272 0,0.7616 0.940799,-0.0224 1.859201,-0.0448 3.0688,-0.0448 1.007999,0 1.657601,0.0224 2.6208,0.0448 0.1344,-0.1344 0.1344,-0.6272 0,-0.7616 -0.940799,-0.0896 -1.1648,-0.1568 -1.1648,-2.016"
         style="font-size:22.39999962px;font-weight:bold;font-family:Linux Libertine O;-inkscape-font-specification:Linux Libertine O Bold"
         id="path10937" /><path
         d="m 108.02621,-209.29236 0,9.3856 c 0,1.8592 -0.2464,1.904 -1.6128,2.016 -0.1344,0.1344 -0.1344,0.6272 0,0.7616 0.9408,-0.0224 1.8592,-0.0448 3.0688,-0.0448 1.1872,0 2.1056,0.0224 3.0688,0.0448 0.1344,-0.1344 0.1344,-0.6272 0,-0.7616 -1.3664,-0.0896 -1.6128,-0.1568 -1.6128,-2.016 l 0,-2.6208 c 0.4704,0.2464 0.9632,0.3808 1.5008,0.3808 3.4048,0 5.6224,-2.2176 5.6224,-5.5328 0,-1.232 -0.4928,-2.6432 -1.344,-3.5168 -0.8064,-0.784 -1.9264,-1.12 -3.0688,-1.12 -0.6496,0 -1.8592,0.784 -2.6432,1.5008 l -0.1344,0 c -0.0448,-0.6272 -0.112,-1.12 -0.112,-1.12 -0.0224,-0.2688 -0.2016,-0.3808 -0.5152,-0.3808 -0.8288,0.224 -2.1728,0.5376 -3.7184,0.7392 -0.0448,0.1344 0,0.5824 0.0448,0.7168 1.2096,0.1344 1.456,0.2912 1.456,1.568 m 2.912,5.4656 0,-5.7344 c 0,-0.112 -0.0224,-0.2464 -0.0224,-0.3584 0.6496,-0.5824 1.4784,-0.896 2.016,-0.896 0.9184,0 1.9936,1.12 1.9936,3.7408 0,1.8816 -0.672,3.9872 -2.6208,3.9872 -0.2464,0 -0.8064,-0.1344 -1.3664,-0.7392"
         style="font-size:22.39999962px;font-weight:bold;font-family:Linux Libertine O;-inkscape-font-specification:Linux Libertine O Bold"
         id="path10939" /><path
         d="m 121.13196,-205.21556 c 0,1.8592 -0.3584,2.0608 -1.7248,2.128 -0.1344,0.1344 -0.1344,0.6272 0,0.7616 0.9408,-0.0224 1.9264,-0.0448 3.1808,-0.0448 1.232,0 2.2176,0.0224 3.1808,0.0448 0.1344,-0.1344 0.1344,-0.6272 0,-0.7616 -1.3664,-0.0672 -1.7248,-0.2688 -1.7248,-2.128 l 0,-10.2144 c 0,-1.456 0.0672,-2.2848 0.0672,-2.2848 0,-0.2016 -0.1568,-0.2912 -0.3584,-0.2912 -0.8288,0.2688 -2.6208,0.5152 -4.2112,0.5824 -0.0672,0.2688 -0.0448,0.5152 0.0672,0.7168 1.4112,0.112 1.5232,0.1568 1.5232,1.68 l 0,9.8112"
         style="font-size:22.39999962px;font-weight:bold;font-family:Linux Libertine O;-inkscape-font-specification:Linux Libertine O Bold"
         id="path10941" /><path
         d="m 130.11926,-208.53076 c 0.0224,-0.784 0.1344,-1.6128 0.448,-2.0832 0.336,-0.5152 0.9408,-0.7616 1.2096,-0.7616 0.6048,0 1.4336,0.5824 1.4336,2.3744 0,0.1344 0,0.4256 -0.0448,0.4704 l -3.0464,0 m 5.6896,3.2704 c -0.9184,0.9408 -2.128,1.1872 -2.9792,1.1872 -1.7472,0 -2.8224,-1.008 -2.8224,-3.2032 0,-0.1568 0.0224,-0.2464 0.0224,-0.3584 l 5.376,0 c 0.5376,0 0.6496,-0.3808 0.6496,-0.6944 0,-1.904 -0.7392,-3.9872 -4.032,-3.9872 -2.352,0 -5.04,2.08321 -5.04,5.5104 0,1.3216 0.4704,2.688 1.4336,3.5392 0.8288,0.784 1.9264,1.12 3.5392,1.12 1.5456,0 3.0688,-0.784 4.1888,-2.4192 0,-0.2912 -0.112,-0.6944 -0.336,-0.6944"
         style="font-size:22.39999962px;font-weight:bold;font-family:Linux Libertine O;-inkscape-font-specification:Linux Libertine O Bold"
         id="path10943" /><path
         d="m 148.11276,-214.95956 c 0,-0.6496 0.112,-0.9632 1.568,-0.9632 1.0304,0 2.2848,0.4032 2.2848,2.5984 0,1.792 -1.008,2.5312 -2.5984,2.5312 l -1.2544,0 0,-4.1664 m 0,5.1072 1.5904,0 c 2.3072,0 3.3152,1.3664 3.3152,3.2928 0,1.344 -0.4704,3.2928 -3.4272,3.2928 -1.344,0 -1.4784,-0.336 -1.4784,-0.9856 l 0,-5.6 m -1.5456,-6.9664 c -0.896,0 -3.4496,-0.0448 -3.4496,-0.0448 -0.224,0.1344 -0.224,0.6272 0,0.7616 1.232,0.0672 1.8592,0.1568 1.8592,2.016 l 0,8.9824 c 0,1.8592 -0.6272,1.9488 -1.8592,2.016 -0.224,0.1344 -0.224,0.6272 0,0.7616 0,0 2.5536,-0.0448 3.4496,-0.0448 0.896,0 2.3296,0.0448 3.6736,0.0448 4.592,0 6.0704,-1.9264 6.0704,-4.2112 0,-1.9712 -0.9856,-3.248 -3.36,-3.8752 l 0,-0.0448 c 1.2096,-0.5376 2.1504,-1.7696 2.1504,-2.912 0,-1.5456 -0.8512,-3.4944 -5.3536,-3.4944 -1.12,0 -2.4864,0.0448 -3.1808,0.0448"
         style="font-size:22.39999962px;font-weight:bold;font-family:Linux Libertine O;-inkscape-font-specification:Linux Libertine O Bold"
         id="path10945" /><path
         d="m 159.58821,-205.21556 c 0,1.8592 -0.3584,2.0608 -1.7248,2.128 -0.1344,0.1344 -0.1344,0.6272 0,0.7616 0.9408,-0.0224 1.9264,-0.0448 3.1808,-0.0448 1.232,0 2.2176,0.0224 3.1808,0.0448 0.1344,-0.1344 0.1344,-0.6272 0,-0.7616 -1.3664,-0.0672 -1.7248,-0.2688 -1.7248,-2.128 l 0,-10.2144 c 0,-1.456 0.0672,-2.2848 0.0672,-2.2848 0,-0.2016 -0.1568,-0.2912 -0.3584,-0.2912 -0.8288,0.2688 -2.6208,0.5152 -4.2112,0.5824 -0.0672,0.2688 -0.0448,0.5152 0.0672,0.7168 1.4112,0.112 1.5232,0.1568 1.5232,1.68 l 0,9.8112"
         style="font-size:22.39999962px;font-weight:bold;font-family:Linux Libertine O;-inkscape-font-specification:Linux Libertine O Bold"
         id="path10947" /><path
         d="m 170.43471,-211.37556 c 1.5232,0 2.5536,1.81441 2.5536,4.8832 0,2.7104 -1.0528,3.4048 -1.8592,3.4048 -1.8368,0 -2.5536,-2.7552 -2.5536,-4.4128 0,-2.0608 0.3584,-3.8752 1.8592,-3.8752 m -4.9952,4.368 c 0,2.9344 2.3072,4.8608 5.3312,4.8608 1.568,0 2.8896,-0.448 3.8304,-1.2768 1.12,-1.008 1.5232,-2.5312 1.5232,-3.7856 0,-2.912 -2.016,-5.1072 -5.3312,-5.1072 -1.8592,0 -3.248,0.6496 -4.144,1.6576 -0.8512,0.9856 -1.2096,2.3296 -1.2096,3.6512"
         style="font-size:22.39999962px;font-weight:bold;font-family:Linux Libertine O;-inkscape-font-specification:Linux Libertine O Bold"
         id="path10949" /><path
         d="m 186.57601,-204.31956 c 0,-0.2688 -0.0448,-0.6944 -0.2912,-0.6944 -0.896,0.8288 -1.6576,1.2544 -2.3072,1.2544 -1.68,0 -3.0016,-1.2096 -3.0016,-3.8976 0,-2.4864 0.56,-3.7184 1.7472,-3.7184 0.8288,0 1.1648,0.8736 1.232,1.5904 0.0672,0.6048 0.672,1.0528 1.3888,1.0528 0.7168,0 1.232,-0.56 1.232,-1.2544 0,-1.008 -1.20961,-2.3296 -3.6512,-2.3296 -2.6432,0 -4.9728,2.12801 -4.9728,5.4432 0,1.456 0.5152,2.7552 1.3888,3.5616 0.8736,0.8288 1.8816,1.1648 3.4944,1.1648 1.344,0 2.8896,-0.9408 3.7408,-2.1728"
         style="font-size:22.39999962px;font-weight:bold;font-family:Linux Libertine O;-inkscape-font-specification:Linux Libertine O Bold"
         id="path10951" /><path
         d="m 189.55696,-205.21556 c 0,1.8592 -0.3584,2.0608 -1.7248,2.128 -0.1344,0.1344 -0.1344,0.6272 0,0.7616 0.9408,-0.0224 1.9264,-0.0448 3.1808,-0.0448 0.9632,0 1.9712,0.0224 2.5088,0.0448 0.1344,-0.1344 0.1344,-0.6272 0,-0.7616 -0.6944,-0.0672 -1.0528,-0.2688 -1.0528,-2.128 l 0,-1.8368 c 0.6272,0 1.2992,0.0896 1.5456,0.4256 0.5152,0.7616 1.1424,1.7024 1.5232,2.5088 0.2912,0.6272 0.3584,0.8288 0.3584,1.1648 l 0,0.5824 0.0448,0.0448 c 0,0 1.008,-0.0448 1.792,-0.0448 0.9184,0 2.1728,0.0224 3.0016,0.0448 0.1344,-0.1344 0.1344,-0.6272 0,-0.7616 -0.8736,-0.0672 -1.3664,-0.0224 -2.0384,-1.0304 l -2.5984,-3.8304 c -0.112,-0.1568 -0.1792,-0.336 -0.0672,-0.448 l 1.0976,-1.2096 c 0.7168,-0.8064 1.344,-1.568 3.0464,-1.7696 0.1344,-0.1344 0.1344,-0.6272 0,-0.7616 -0.4928,0.0224 -1.904,0.0448 -2.4864,0.0448 -0.8288,0 -1.8816,-0.0224 -2.7104,-0.0448 -0.1344,0.1344 -0.1344,0.6272 0,0.7616 1.2096,0.0896 1.5456,0.3136 0.9184,1.1872 -0.4928,0.6944 -0.9856,1.232 -1.4336,1.6128 -0.2912,0.2464 -1.3216,0.6272 -1.9936,0.6272 l 0,-7.4816 c 0,-1.456 0.0672,-2.2848 0.0672,-2.2848 0,-0.2016 -0.1568,-0.2912 -0.3584,-0.2912 -0.8288,0.2688 -2.6208,0.5152 -4.2112,0.5824 -0.0672,0.2688 -0.0448,0.5152 0.0672,0.7168 1.4112,0.112 1.5232,0.1568 1.5232,1.68 l 0,9.8112"
         style="font-size:22.39999962px;font-weight:bold;font-family:Linux Libertine O;-inkscape-font-specification:Linux Libertine O Bold"
         id="path10953" /><path
         d="m 210.50726,-204.31956 c 0,-0.2688 -0.0448,-0.6944 -0.2912,-0.6944 -0.896,0.8288 -1.6576,1.2544 -2.3072,1.2544 -1.68,0 -3.0016,-1.2096 -3.0016,-3.8976 0,-2.4864 0.56,-3.7184 1.7472,-3.7184 0.8288,0 1.1648,0.8736 1.232,1.5904 0.0672,0.6048 0.672,1.0528 1.3888,1.0528 0.7168,0 1.232,-0.56 1.232,-1.2544 0,-1.008 -1.2096,-2.3296 -3.6512,-2.3296 -2.6432,0 -4.9728,2.12801 -4.9728,5.4432 0,1.456 0.5152,2.7552 1.3888,3.5616 0.8736,0.8288 1.8816,1.1648 3.4944,1.1648 1.344,0 2.8896,-0.9408 3.7408,-2.1728"
         style="font-size:22.39999962px;font-weight:bold;font-family:Linux Libertine O;-inkscape-font-specification:Linux Libertine O Bold"
         id="path10955" /><path
         d="m 223.07541,-205.23796 0,-3.4944 c 0,-2.464 -1.0528,-3.584 -2.9792,-3.584 -0.82879,0 -2.4416,0.8288 -3.696,1.6352 l 0,-4.7488 c 0,-1.456 0.0672,-2.2848 0.0672,-2.2848 0,-0.2016 -0.1568,-0.2912 -0.3584,-0.2912 -0.82879,0.2688 -2.6208,0.5152 -4.2112,0.5824 -0.0672,0.2688 -0.0448,0.5152 0.0672,0.7168 1.4112,0.112 1.5232,0.1568 1.5232,1.68 l 0,9.8112 c 0,1.8592 -0.3584,2.0608 -1.7248,2.128 -0.1344,0.1344 -0.1344,0.6272 0,0.7616 0.9408,-0.0224 1.92641,-0.0448 3.1808,-0.0448 1.0528,0 1.76961,0.0224 2.7328,0.0448 0.1344,-0.1344 0.1344,-0.6272 0,-0.7616 -0.94079,-0.0672 -1.2768,-0.2688 -1.2768,-2.128 l 0,-4.5696 c 0.9184,-0.6048 1.68001,-0.8736 2.0832,-0.8736 0.896,0 1.68,0.4032 1.68,1.68 l 0,3.7408 c 0,1.8816 -0.3584,2.0832 -1.2768,2.1504 -0.1344,0.1344 -0.1344,0.6272 0,0.7616 0.9408,-0.0224 1.65761,-0.0448 2.7328,-0.0448 1.232,0 2.21761,0.0224 3.1808,0.0448 0.1344,-0.1344 0.1344,-0.6272 0,-0.7616 -1.36639,-0.0672 -1.7248,-0.2688 -1.7248,-2.1504"
         style="font-size:22.39999962px;font-weight:bold;font-family:Linux Libertine O;-inkscape-font-specification:Linux Libertine O Bold"
         id="path10957" /><path
         d="m 231.72496,-203.44596 c 0.1568,0.896 0.7616,1.2992 1.7472,1.2992 1.232,0 2.1056,-0.4704 2.9344,-1.2544 -0.0672,-0.2464 -0.1568,-0.4256 -0.4032,-0.6272 -0.2912,0.224 -0.5152,0.3136 -0.9408,0.3136 -0.4928,0 -0.6272,-0.4032 -0.6272,-1.5008 l 0.0448,-3.2256 c 0,-3.22559 -1.9936,-3.8752 -3.8304,-3.8752 -1.6352,0 -4.1664,0.9408 -4.1664,2.4192 0,0.6496 0.2688,1.1424 1.1648,1.1424 0.784,0 1.3888,-0.4928 1.3888,-1.0528 0,-0.2912 -0.1568,-0.672 -0.112,-1.0528 0.0448,-0.2464 0.2016,-0.5152 0.9632,-0.5152 0.9408,0 1.7248,0.4032 1.7248,3.248 l -1.5008,0.4704 c -2.3744,0.7392 -4.0096,1.3888 -4.0096,3.1584 0,1.5456 0.8512,2.352 2.8,2.352 0.6496,0 1.9488,-0.7168 2.688,-1.2992 l 0.1344,0 m -0.112,-3.808 0,2.9568 c -0.56,0.448 -1.12,0.8064 -1.5232,0.8064 -0.9632,0 -1.2992,-0.6496 -1.2992,-1.344 0,-0.8288 0.0672,-1.5008 1.6576,-2.0384 l 1.1648,-0.3808"
         style="font-size:22.39999962px;font-weight:bold;font-family:Linux Libertine O;-inkscape-font-specification:Linux Libertine O Bold"
         id="path10959" /><path
         d="m 241.64501,-205.10356 0,-4.4576 c 0,-1.12 0.0896,-2.3744 0.0896,-2.3744 0,-0.2464 -0.2016,-0.3808 -0.5152,-0.3808 -0.6496,0.2464 -2.4416,0.4256 -3.9872,0.6272 -0.0448,0.1344 0,0.5824 0.0448,0.7168 1.2096,0.1344 1.456,0.2912 1.456,1.568 l 0,4.3008 c 0,1.8592 -0.2464,1.904 -1.6128,2.016 -0.1344,0.1344 -0.1344,0.6272 0,0.7616 0.9408,-0.0224 1.8592,-0.0448 3.0688,-0.0448 1.1872,0 2.1056,0.0224 3.0688,0.0448 0.1344,-0.1344 0.1344,-0.6272 0,-0.7616 -1.3664,-0.0896 -1.6128,-0.1568 -1.6128,-2.016 m -3.024,-10.6176 c 0,0.7392 0.5376,1.4784 1.4336,1.4784 1.008,0 1.5904,-0.8064 1.5904,-1.3888 0,-0.672 -0.5152,-1.4784 -1.456,-1.4784 -1.0528,0 -1.568,0.7168 -1.568,1.3888"
         style="font-size:22.39999962px;font-weight:bold;font-family:Linux Libertine O;-inkscape-font-specification:Linux Libertine O Bold"
         id="path10961" /><path
         d="m 248.77416,-205.10356 0,-4.4576 0,-0.0448 c 0.8736,-0.6048 1.792,-1.0528 2.1952,-1.0528 0.896,0 1.568,0.4032 1.568,1.68 l 0,3.7408 c 0,1.8816 -0.3584,2.0832 -1.2768,2.1504 -0.1344,0.1344 -0.1344,0.6272 0,0.7616 0.9408,-0.0224 1.6576,-0.0448 2.7328,-0.0448 1.232,0 2.2176,0.0224 3.1808,0.0448 0.1344,-0.1344 0.1344,-0.6272 0,-0.7616 -1.3664,-0.0672 -1.7248,-0.2688 -1.7248,-2.1504 l 0,-3.4944 c 0,-2.464 -1.0528,-3.584 -2.9792,-3.584 -0.9184,0 -2.5088,1.008 -3.7408,1.8368 -0.0448,-0.784 -0.1344,-1.456 -0.1344,-1.456 -0.0224,-0.2688 -0.2016,-0.3808 -0.5152,-0.3808 -0.8288,0.224 -2.1728,0.5376 -3.7184,0.7392 -0.0448,0.1344 0,0.5824 0.0448,0.7168 1.2096,0.1344 1.456,0.2912 1.456,1.568 l 0,4.1888 c 0,1.8592 -0.2464,1.904 -1.6128,2.016 -0.1344,0.1344 -0.1344,0.6272 0,0.7616 0.9408,-0.0224 1.8592,-0.0448 3.0688,-0.0448 1.008,0 1.6576,0.0224 2.6208,0.0448 0.1344,-0.1344 0.1344,-0.6272 0,-0.7616 -0.9408,-0.0896 -1.1648,-0.1568 -1.1648,-2.016"
         style="font-size:22.39999962px;font-weight:bold;font-family:Linux Libertine O;-inkscape-font-specification:Linux Libertine O Bold"
         id="path10963" /><path
         d="m 269.1634,-208.70996 c -0.4928,0 -0.6496,-0.0672 -0.5824,-0.2912 l 1.9936,-5.0176 0.1568,0 1.8368,5.3088 -3.4048,0 m -2.4192,4.5696 1.1872,-3.1136 c 0.112,-0.2912 0.2464,-0.3808 0.784,-0.3808 l 4.256,0 1.2544,3.6512 c 0.3136,0.9184 -0.6048,0.8288 -1.6576,0.896 -0.1344,0.1344 -0.1344,0.6272 0,0.7616 0.8288,-0.0224 2.9568,-0.0448 3.8304,-0.0448 0.9184,0 2.1728,0.0224 3.0016,0.0448 0.1344,-0.1344 0.1344,-0.6272 0,-0.7616 -0.8736,-0.0672 -1.6128,-0.0672 -2.016,-1.2096 l -4.6144,-12.8128 c -0.336,0.2016 -1.68,0.9856 -2.4864,0.9856 l -4.8384,11.4688 c -0.5824,1.3888 -1.2768,1.5008 -2.24,1.568 -0.1344,0.1344 -0.1344,0.6272 0,0.7616 0.8288,-0.0224 1.232,-0.0448 2.1056,-0.0448 0.9184,0 2.1504,0.0224 2.9792,0.0448 0.1344,-0.1344 0.1344,-0.6272 0,-0.7616 -0.8512,-0.0448 -1.904,-0.1344 -1.5456,-1.0528"
         style="font-size:22.39999962px;font-weight:bold;font-family:Linux Libertine O;-inkscape-font-specification:Linux Libertine O Bold"
         id="path10965" /><path
         d="m 284.73666,-208.37396 c 0,-0.8064 0.2464,-1.12 0.5376,-1.4784 0.1792,-0.2016 0.3808,-0.3808 0.6944,-0.3808 0.224,0 0.448,0.2016 0.6496,0.448 0.1568,0.1792 0.5376,0.3584 1.0304,0.3584 0.64959,0 1.2992,-0.6944 1.2992,-1.6352 0,-0.5824 -0.67201,-1.2544 -1.4784,-1.2544 -0.784,0 -1.63521,0.672 -2.6656,2.1504 l -0.0896,0 c -0.0448,-0.672 -0.1568,-1.7696 -0.1568,-1.7696 -0.0224,-0.1792 -0.2016,-0.3808 -0.5152,-0.3808 -1.0752,0.2688 -2.24001,0.6048 -3.7184,0.7392 -0.0448,0.1344 0,0.56 0.0448,0.6944 1.20959,0.1344 1.456,0.3136 1.456,1.5904 l 0,4.1888 c 0,1.8592 -0.24641,1.904 -1.6128,2.016 -0.1344,0.1344 -0.1344,0.6272 0,0.7616 0.94079,-0.0224 1.8592,-0.0448 3.0688,-0.0448 1.18719,0 2.1056,0.0224 3.0688,0.0448 0.1344,-0.1344 0.1344,-0.6272 0,-0.7616 -1.3664,-0.0896 -1.6128,-0.1568 -1.6128,-2.016 l 0,-3.2704"
         style="font-size:22.39999962px;font-weight:bold;font-family:Linux Libertine O;-inkscape-font-specification:Linux Libertine O Bold"
         id="path10967" /><path
         d="m 290.62191,-212.09236 c -0.3136,0.0224 -0.672,0.0896 -0.9408,0.336 l 0,0.6496 c 0,0.112 0.0224,0.1344 0.112,0.1344 l 1.456,0 c -0.0672,2.2624 -0.0672,5.1296 -0.0672,6.2496 0,0.784 0.1792,1.5456 0.672,1.9488 0.4928,0.448 1.3216,0.6272 1.8592,0.6272 1.232,0 2.5984,-0.6272 3.0464,-1.2544 0,-0.2688 -0.1344,-0.4032 -0.4032,-0.6272 -0.2912,0.224 -0.8512,0.3136 -1.2768,0.3136 -0.4928,0 -0.9856,-0.3808 -0.9856,-1.5008 0,-1.12 -0.0224,-3.5168 -0.0224,-5.7568 l 2.2624,0 c 0.224,0 0.5376,-0.0896 0.5376,-0.2912 l 0,-0.6944 c 0,-0.0896 -0.0672,-0.1344 -0.1792,-0.1344 l -2.6208,0 0.0224,-0.7616 c 0.0448,-1.4784 0.112,-2.5312 0.112,-2.5312 0,-0.1344 -0.0672,-0.1792 -0.1792,-0.1792 -0.1568,0 -1.008,0.2464 -1.344,0.3808 -0.3808,0.1568 -1.0528,0.2912 -1.1872,0.4928 -0.1568,0.224 -0.2464,0.8288 -0.2464,2.5984 l -0.6272,0"
         style="font-size:22.39999962px;font-weight:bold;font-family:Linux Libertine O;-inkscape-font-specification:Linux Libertine O Bold"
         id="path10969" /><path
         d="m 308.50656,-205.03636 0,-9.184 c 0,-1.232 0.5824,-1.68 1.3888,-1.68 4.41279,0 4.9056,3.78561 4.9056,7.168 0,4.0768 -2.44161,5.4656 -4.144,5.4656 -1.568,0 -2.1504,-0.2688 -2.1504,-1.7696 m -1.5456,2.6656 c 0.89599,0 2.7328,0.0448 3.6288,0.0448 1.94879,0 4.1888,-0.4928 5.7792,-1.8816 1.07519,-0.9408 1.8144,-2.8 1.8144,-5.0848 0,-4.14399 -2.68801,-7.5488 -8.1984,-7.5488 -1.1872,0 -2.12801,0.0224 -3.024,0.0224 -0.896,0 -3.4496,-0.0448 -3.4496,-0.0448 -0.224,0.1344 -0.224,0.6272 0,0.7616 1.23199,0.0672 1.8592,0.1568 1.8592,2.016 l 0,8.9824 c 0,1.8592 -0.62721,1.9488 -1.8592,2.016 -0.224,0.1344 -0.224,0.6272 0,0.7616 0,0 2.5536,-0.0448 3.4496,-0.0448"
         style="font-size:22.39999962px;font-weight:bold;font-family:Linux Libertine O;-inkscape-font-specification:Linux Libertine O Bold"
         id="path10971" /><path
         d="m 324.46375,-205.10356 0,-4.4576 c 0,-1.12 0.0896,-2.3744 0.0896,-2.3744 0,-0.2464 -0.2016,-0.3808 -0.5152,-0.3808 -0.6496,0.2464 -2.4416,0.4256 -3.9872,0.6272 -0.0448,0.1344 0,0.5824 0.0448,0.7168 1.2096,0.1344 1.456,0.2912 1.456,1.568 l 0,4.3008 c 0,1.8592 -0.2464,1.904 -1.6128,2.016 -0.1344,0.1344 -0.1344,0.6272 0,0.7616 0.9408,-0.0224 1.8592,-0.0448 3.0688,-0.0448 1.1872,0 2.1056,0.0224 3.0688,0.0448 0.1344,-0.1344 0.1344,-0.6272 0,-0.7616 -1.3664,-0.0896 -1.6128,-0.1568 -1.6128,-2.016 m -3.024,-10.6176 c 0,0.7392 0.5376,1.4784 1.4336,1.4784 1.008,0 1.5904,-0.8064 1.5904,-1.3888 0,-0.672 -0.5152,-1.4784 -1.456,-1.4784 -1.0528,0 -1.568,0.7168 -1.568,1.3888"
         style="font-size:22.39999962px;font-weight:bold;font-family:Linux Libertine O;-inkscape-font-specification:Linux Libertine O Bold"
         id="path10973" /><path
         d="m 333.09372,-203.44596 c 0.1568,0.896 0.7616,1.2992 1.7472,1.2992 1.232,0 2.1056,-0.4704 2.9344,-1.2544 -0.0672,-0.2464 -0.1568,-0.4256 -0.4032,-0.6272 -0.2912,0.224 -0.5152,0.3136 -0.9408,0.3136 -0.4928,0 -0.6272,-0.4032 -0.6272,-1.5008 l 0.0448,-3.2256 c 0,-3.22559 -1.9936,-3.8752 -3.8304,-3.8752 -1.6352,0 -4.1664,0.9408 -4.1664,2.4192 0,0.6496 0.2688,1.1424 1.1648,1.1424 0.784,0 1.3888,-0.4928 1.3888,-1.0528 0,-0.2912 -0.1568,-0.672 -0.112,-1.0528 0.0448,-0.2464 0.2016,-0.5152 0.9632,-0.5152 0.9408,0 1.7248,0.4032 1.7248,3.248 l -1.5008,0.4704 c -2.3744,0.7392 -4.0096,1.3888 -4.0096,3.1584 0,1.5456 0.8512,2.352 2.8,2.352 0.6496,0 1.9488,-0.7168 2.688,-1.2992 l 0.1344,0 m -0.112,-3.808 0,2.9568 c -0.56,0.448 -1.12,0.8064 -1.5232,0.8064 -0.9632,0 -1.2992,-0.6496 -1.2992,-1.344 0,-0.8288 0.0672,-1.5008 1.6576,-2.0384 l 1.1648,-0.3808"
         style="font-size:22.39999962px;font-weight:bold;font-family:Linux Libertine O;-inkscape-font-specification:Linux Libertine O Bold"
         id="path10975" /><path
         d="m 344.31296,-208.82196 c 0,2.1504 -0.62721,2.4192 -1.2096,2.4192 -1.3888,0 -1.568,-1.6576 -1.568,-2.8 0,-1.6576 0.4032,-2.2624 1.2768,-2.2624 1.05279,0 1.5008,0.8736 1.5008,2.6432 m -2.576,7.0112 c 1.70239,0 5.04,0.0672 5.04,1.2544 0,0.8288 -0.38081,1.7248 -1.0976,2.1504 -0.6944,0.3808 -1.83681,0.4256 -2.688,0.4256 -1.4784,0 -2.4864,-1.0976 -2.4864,-2.24 0,-0.7616 0,-1.2768 0.2464,-1.7248 0.224,0.0896 0.5152,0.1344 0.9856,0.1344 m 6.5408,-9.3856 c 0.62719,0 0.9856,-0.2688 0.9856,-1.0976 0,-0.4256 -0.58241,-1.0752 -1.4336,-1.0752 -0.9856,0 -2.28481,0.7392 -2.9344,1.3216 -0.4032,-0.224 -0.87361,-0.2688 -1.8816,-0.2688 -0.9856,0 -1.90401,0.2464 -2.6432,0.7168 -0.9184,0.6048 -1.5232,1.456 -1.5232,2.5984 0,1.0976 0.6496,2.2848 1.7248,2.8896 -0.6944,0.5824 -1.7696,1.7696 -1.7696,2.2176 0,0.448 0.0672,0.6944 0.2912,1.0304 0.2016,0.3136 0.4704,0.4928 0.9184,0.6272 -0.9632,0.5824 -1.9488,1.8592 -1.9488,2.24 0,0.8288 0.2464,1.792 0.8736,2.2176 0.85119,0.6272 2.352,0.7392 3.4272,0.7392 3.11359,0 6.6752,-1.6352 6.6752,-4.0992 0,-0.4704 -0.22401,-1.4112 -1.12,-2.0384 -0.8736,-0.5824 -4.25601,-0.7392 -5.8912,-0.7392 -0.4032,0 -1.008,-0.0448 -1.008,-0.9408 0,-0.3584 0.2016,-0.672 0.3136,-0.9408 0.4704,0.224 0.9632,0.2464 1.6576,0.2464 1.14239,0 2.1728,-0.2688 2.9568,-0.9632 0.62719,-0.56 1.0976,-1.3664 1.0976,-2.3744 0,-1.2544 -0.62721,-2.0832 -1.3888,-2.7104 0.1792,-0.224 0.9184,-0.6272 1.1424,-0.6272 0.2016,0 0.3584,0.1344 0.4256,0.2688 0.0896,0.2912 0.4928,0.7616 1.0528,0.7616"
         style="font-size:22.39999962px;font-weight:bold;font-family:Linux Libertine O;-inkscape-font-specification:Linux Libertine O Bold"
         id="path10977" /><path
         d="m 354.6054,-208.37396 c 0,-0.8064 0.2464,-1.12 0.5376,-1.4784 0.1792,-0.2016 0.3808,-0.3808 0.6944,-0.3808 0.224,0 0.448,0.2016 0.6496,0.448 0.1568,0.1792 0.5376,0.3584 1.0304,0.3584 0.6496,0 1.2992,-0.6944 1.2992,-1.6352 0,-0.5824 -0.672,-1.2544 -1.4784,-1.2544 -0.784,0 -1.6352,0.672 -2.6656,2.1504 l -0.0896,0 c -0.0448,-0.672 -0.1568,-1.7696 -0.1568,-1.7696 -0.0224,-0.1792 -0.2016,-0.3808 -0.5152,-0.3808 -1.0752,0.2688 -2.24,0.6048 -3.7184,0.7392 -0.0448,0.1344 0,0.56 0.0448,0.6944 1.2096,0.1344 1.456,0.3136 1.456,1.5904 l 0,4.1888 c 0,1.8592 -0.2464,1.904 -1.6128,2.016 -0.1344,0.1344 -0.1344,0.6272 0,0.7616 0.9408,-0.0224 1.8592,-0.0448 3.0688,-0.0448 1.1872,0 2.1056,0.0224 3.0688,0.0448 0.1344,-0.1344 0.1344,-0.6272 0,-0.7616 -1.3664,-0.0896 -1.6128,-0.1568 -1.6128,-2.016 l 0,-3.2704"
         style="font-size:22.39999962px;font-weight:bold;font-family:Linux Libertine O;-inkscape-font-specification:Linux Libertine O Bold"
         id="path10979" /><path
         d="m 365.68747,-203.44596 c 0.1568,0.896 0.7616,1.2992 1.7472,1.2992 1.232,0 2.1056,-0.4704 2.9344,-1.2544 -0.0672,-0.2464 -0.1568,-0.4256 -0.4032,-0.6272 -0.2912,0.224 -0.5152,0.3136 -0.9408,0.3136 -0.4928,0 -0.6272,-0.4032 -0.6272,-1.5008 l 0.0448,-3.2256 c 0,-3.22559 -1.9936,-3.8752 -3.8304,-3.8752 -1.6352,0 -4.1664,0.9408 -4.1664,2.4192 0,0.6496 0.2688,1.1424 1.1648,1.1424 0.784,0 1.3888,-0.4928 1.3888,-1.0528 0,-0.2912 -0.1568,-0.672 -0.112,-1.0528 0.0448,-0.2464 0.2016,-0.5152 0.9632,-0.5152 0.9408,0 1.7248,0.4032 1.7248,3.248 l -1.5008,0.4704 c -2.3744,0.7392 -4.0096,1.3888 -4.0096,3.1584 0,1.5456 0.8512,2.352 2.8,2.352 0.6496,0 1.9488,-0.7168 2.688,-1.2992 l 0.1344,0 m -0.112,-3.808 0,2.9568 c -0.56,0.448 -1.12,0.8064 -1.5232,0.8064 -0.9632,0 -1.2992,-0.6496 -1.2992,-1.344 0,-0.8288 0.0672,-1.5008 1.6576,-2.0384 l 1.1648,-0.3808"
         style="font-size:22.39999962px;font-weight:bold;font-family:Linux Libertine O;-inkscape-font-specification:Linux Libertine O Bold"
         id="path10981" /><path
         d="m 375.51791,-205.10356 0,-4.4576 c 0,-0.112 -0.0224,-0.224 -0.0224,-0.3136 0.87359,-0.5376 1.68,-0.784 2.0608,-0.784 0.89599,0 1.568,0.4032 1.568,1.68 l 0,3.7408 c 0,1.8816 -0.35841,2.0832 -1.2768,2.1504 -0.1344,0.1344 -0.1344,0.6272 0,0.7616 0.94079,-0.0224 1.6576,-0.0448 2.7328,-0.0448 1.07519,0 1.7696,0.0224 2.7328,0.0448 0.1344,-0.1344 0.1344,-0.6272 0,-0.7616 -0.896,-0.0672 -1.2768,-0.2688 -1.2768,-2.1504 l 0,-3.4944 c 0,-0.5376 -0.0448,-0.9856 -0.0896,-1.2096 0.85119,-0.448 1.792,-0.7168 2.1728,-0.7168 0.89599,0 1.5232,0.4032 1.5232,1.68 l 0,3.7408 c 0,1.8816 -0.35841,2.0832 -1.2768,2.1504 -0.1344,0.1344 -0.1344,0.6272 0,0.7616 0.94079,-0.0224 1.6576,-0.0448 2.7328,-0.0448 1.23199,0 2.2176,0.0224 3.1808,0.0448 0.1344,-0.1344 0.1344,-0.6272 0,-0.7616 -1.3664,-0.0672 -1.7248,-0.2688 -1.7248,-2.1504 l 0,-3.4944 c 0,-2.464 -0.89601,-3.584 -2.8224,-3.584 -0.8288,0 -2.73281,0.896 -4.032,1.6352 -0.336,-0.9856 -1.23201,-1.6352 -2.5312,-1.6352 -0.8064,0 -2.44161,0.8512 -3.7184,1.568 -0.0448,-0.6496 -0.112,-1.1872 -0.112,-1.1872 -0.0224,-0.2688 -0.2016,-0.3808 -0.5152,-0.3808 -0.8288,0.224 -2.17281,0.5376 -3.7184,0.7392 -0.0448,0.1344 0,0.5824 0.0448,0.7168 1.20959,0.1344 1.456,0.2912 1.456,1.568 l 0,4.1888 c 0,1.8592 -0.24641,1.904 -1.6128,2.016 -0.1344,0.1344 -0.1344,0.6272 0,0.7616 0.94079,-0.0224 1.8592,-0.0448 3.0688,-0.0448 1.00799,0 1.6576,0.0224 2.6208,0.0448 0.1344,-0.1344 0.1344,-0.6272 0,-0.7616 -0.9408,-0.0896 -1.1648,-0.1568 -1.1648,-2.016"
         style="font-size:22.39999962px;font-weight:bold;font-family:Linux Libertine O;-inkscape-font-specification:Linux Libertine O Bold"
         id="path10983" /></g><text
       xml:space="preserve"
       style="font-size:22.19563675px;font-style:normal;font-variant:normal;font-weight:normal;font-stretch:normal;line-height:125%;letter-spacing:0px;word-spacing:0px;fill:#000000;fill-opacity:1;stroke:none;font-family:Serif;-inkscape-font-specification:Serif"
       x="12.793634"
       y="-16.471189"
       id="text5846"
       sodipodi:linespacing="125%"
       transform="scale(1,-1)"><tspan
         sodipodi:role="line"
         id="tspan5848"
         x="12.793634"
         y="-16.471189"
         style="font-size:16px;font-style:normal;font-variant:normal;font-weight:normal;font-stretch:normal;font-family:Linux Libertine O;-inkscape-font-specification:Linux Libertine O">Rob Myers ca. #420522 after MTAA ca. 1997</tspan></text>
</g></svg>